Handle,Title,Body (HTML),Vendor,Type,Tags,Published,Option1 Name,Option1 Value,Option2 Name,Option2 Value,Option3 Name,Option3 Value,Variant SKU,Variant Grams,Variant Inventory Tracker,Variant Inventory Qty,Variant Inventory Policy,Variant Fulfillment Service,Variant Price,Variant Compare At Price,Variant Requires Shipping,Variant Taxable,Variant Barcode,Image Src,Image Alt Text,Gift Card,SEO Title,SEO Description,Google Shopping / Google Product Category,Google Shopping / Gender,Google Shopping / Age Group,Google Shopping / MPN,Google Shopping / AdWords Grouping,Google Shopping / AdWords Labels,Google Shopping / Condition,Google Shopping / Custom Product,Google Shopping / Custom Label 0,Google Shopping / Custom Label 1,Google Shopping / Custom Label 2,Google Shopping / Custom Label 3,Google Shopping / Custom Label 4,Variant Image,Variant Weight Unit,Collection
gin-lane-greenport-cotton-shirt-4,Gin Lane Greenport Cotton Shirt,"<p>Lorem Ipsum is simply dummy text of the printing and typesetting industry. Lorem Ipsum has been the industry's standard dummy text ever since the 1500s, when an unknown printer took a galley of type and scrambled it to make a type specimen book.</p>
<p>It has survived not only five centuries, but also the leap into electronic typesetting, remaining essentially unchanged. It was popularised in the 1960s with the release of Letraset sheets containing Lorem Ipsum passages, and more recently with desktop publishing software like Aldus PageMaker including versions of Lorem Ipsum.</p>",The Hood,Shirt,"$200 - $300, Blue, gray, M, Red, S",TRUE,Size,M,Color,Blue,,,,0,,1,deny,manual,259,300,TRUE,TRUE,,https://cdn.shopify.com/s/files/1/1065/1422/products/1_5c5669ac-3e25-4448-9d0e-3d7b80548d21.jpg?v=1451463131,,FALSE,,,,,,,,,,,,,,,,,kg,Clothings
gin-lane-greenport-cotton-shirt-4,,,,,,,,M,,Gray,,,,0,,1,deny,manual,259,300,TRUE,TRUE,,https://cdn.shopify.com/s/files/1/1065/1422/products/2_4ee76ff1-60ac-469e-a741-5b7bd455e081.jpg?v=1451463131,,,,,,,,,,,,,,,,,,,kg,Clothings
gin-lane-greenport-cotton-shirt-4,,,,,,,,S,,Blue,,,,0,,1,deny,manual,259,300,TRUE,TRUE,,https://cdn.shopify.com/s/files/1/1065/1422/products/1_bcc5310e-7854-43f2-86c0-a6485eb8392d.jpg?v=1451463148,,,,,,,,,,,,,,,,,,,kg,Clothings
gin-lane-greenport-cotton-shirt-4,,,,,,,,S,,Gray,,,,0,,1,deny,manual,259,300,TRUE,TRUE,,https://cdn.shopify.com/s/files/1/1065/1422/products/2_d14a37a2-bd31-4e81-a03c-f01456cd62d4.jpg?v=1451463157,,,,,,,,,,,,,,,,,,,kg,Clothings
gin-lane-greenport-cotton-shirt-5,Gin Lane Greenport Cotton Shirt,"<p>Lorem Ipsum is simply dummy text of the printing and typesetting industry. Lorem Ipsum has been the industry's standard dummy text ever since the 1500s, when an unknown printer took a galley of type and scrambled it to make a type specimen book.</p>
<p>It has survived not only five centuries, but also the leap into electronic typesetting, remaining essentially unchanged. It was popularised in the 1960s with the release of Letraset sheets containing Lorem Ipsum passages, and more recently with desktop publishing software like Aldus PageMaker including versions of Lorem Ipsum.</p>",Baby Milo,Shirts,"$300 - $400, Blue, gray, green, L, M, orange, S, XL",TRUE,Size,XL,Color,Red,,,,0,,1,deny,manual,320,,TRUE,TRUE,,https://cdn.shopify.com/s/files/1/1065/1422/products/1_d21d825e-c6df-4a09-a1e1-c1f1c7ffff21.jpg?v=1451463192,,FALSE,,,,,,,,,,,,,,,,,kg,Clothings
gin-lane-greenport-cotton-shirt-5,,,,,,,,XL,,Gray,,,,0,,1,deny,manual,320,,TRUE,TRUE,,https://cdn.shopify.com/s/files/1/1065/1422/products/2_b48920fc-2368-447b-819b-33aec5db3089.jpg?v=1451463192,,,,,,,,,,,,,,,,,,,kg,Clothings
gin-lane-greenport-cotton-shirt-5,,,,,,,,L,,Red,,,,0,,1,deny,manual,320,,TRUE,TRUE,,https://cdn.shopify.com/s/files/1/1065/1422/products/1_f2fd20e7-82d4-4a1f-ad83-564060b0ab96.jpg?v=1451463215,,,,,,,,,,,,,,,,,,,kg,Clothings
gin-lane-greenport-cotton-shirt-5,,,,,,,,L,,Gray,,,,0,,0,deny,manual,320,,TRUE,TRUE,,https://cdn.shopify.com/s/files/1/1065/1422/products/2_41d0b9bf-5123-4d16-8e72-c21cee4972e6.jpg?v=1451463228,,,,,,,,,,,,,,,,,,,kg,Clothings
gin-lane-greenport-cotton-shirt-5,,,,,,,,M,,Red,,,,0,,1,deny,manual,320,,TRUE,TRUE,,,,,,,,,,,,,,,,,,,,,kg,Clothings
gin-lane-greenport-cotton-shirt-5,,,,,,,,M,,Gray,,,,0,,1,deny,manual,320,,TRUE,TRUE,,,,,,,,,,,,,,,,,,,,,kg,Clothings
gin-lane-greenport-cotton-shirt-5,,,,,,,,S,,Red,,,,0,,1,deny,manual,320,,TRUE,TRUE,,,,,,,,,,,,,,,,,,,,,kg,Clothings
gin-lane-greenport-cotton-shirt-5,,,,,,,,S,,Gray,,,,0,,1,deny,manual,320,,TRUE,TRUE,,,,,,,,,,,,,,,,,,,,,kg,Clothings
gin-lane-greenport-cotton-shirt-6,Gin Lane Greenport Cotton Shirt,"<p>Lorem Ipsum is simply dummy text of the printing and typesetting industry. Lorem Ipsum has been the industry's standard dummy text ever since the 1500s, when an unknown printer took a galley of type and scrambled it to make a type specimen book.</p>
<p>It has survived not only five centuries, but also the leap into electronic typesetting, remaining essentially unchanged. It was popularised in the 1960s with the release of Letraset sheets containing Lorem Ipsum passages, and more recently with desktop publishing software like Aldus PageMaker including versions of Lorem Ipsum.</p>",Nike,Shirts,"dask, gray, M",TRUE,Size,M,Color,Dask,,,,0,,1,deny,manual,499,,TRUE,TRUE,,https://cdn.shopify.com/s/files/1/1065/1422/products/1_e85f800d-6b63-44b2-b667-47c434032c10.jpg?v=1451463252,,FALSE,,,,,,,,,,,,,,,,,kg,New arrivals
gin-lane-greenport-cotton-shirt-6,,,,,,,,M,,Gray,,,,0,,1,deny,manual,499,,TRUE,TRUE,,https://cdn.shopify.com/s/files/1/1065/1422/products/2_896678b8-1eba-47aa-9b46-828dfe418dda.jpg?v=1451463252,,,,,,,,,,,,,,,,,,,kg,
gin-lane-greenport-cotton-shirt-6,,,,,,,,,,,,,,,,,,,,,,,,https://cdn.shopify.com/s/files/1/1065/1422/products/1_77ce9655-899f-4736-9aa1-b190d5777d45.jpg?v=1451463277,,,,,,,,,,,,,,,,,,,,Jacket
gin-lane-greenport-cotton-shirt-6,,,,,,,,,,,,,,,,,,,,,,,,https://cdn.shopify.com/s/files/1/1065/1422/products/2_20963247-cddd-4b69-a377-d78a6917a905.jpg?v=1451463292,,,,,,,,,,,,,,,,,,,,New arrivals
gin-lane-greenport-cotton-shirt-7,Gin Lane Greenport Cotton Shirt,"<p>Lorem Ipsum is simply dummy text of the printing and typesetting industry. Lorem Ipsum has been the industry's standard dummy text ever since the 1500s, when an unknown printer took a galley of type and scrambled it to make a type specimen book.</p>
<p>It has survived not only five centuries, but also the leap into electronic typesetting, remaining essentially unchanged. It was popularised in the 1960s with the release of Letraset sheets containing Lorem Ipsum passages, and more recently with desktop publishing software like Aldus PageMaker including versions of Lorem Ipsum.</p>",Baby Milo,Shirt,Red,TRUE,Color,Red,,,,,,0,,1,deny,manual,135,189,TRUE,TRUE,,https://cdn.shopify.com/s/files/1/1065/1422/products/1_5a169a4f-0301-4ccc-9f73-c02cd3e85e51.jpg?v=1451463637,,FALSE,,,,,,,,,,,,,,,,,kg,Clothings
gin-lane-greenport-cotton-shirt-7,,,,,,,,,,,,,,,,,,,,,,,,https://cdn.shopify.com/s/files/1/1065/1422/products/2_a2894b6d-7a8d-4f9a-a8a4-600eed97dd2c.jpg?v=1451463637,,,,,,,,,,,,,,,,,,,,Clothings
gin-lane-greenport-cotton-shirt-7,,,,,,,,,,,,,,,,,,,,,,,,https://cdn.shopify.com/s/files/1/1065/1422/products/1_9380a9b3-aba5-436c-a648-42c8348a9df5.jpg?v=1451463658,,,,,,,,,,,,,,,,,,,,Clothings
gin-lane-greenport-cotton-shirt-7,,,,,,,,,,,,,,,,,,,,,,,,https://cdn.shopify.com/s/files/1/1065/1422/products/2_1ad19ec2-0e7b-4e18-9a32-16618814d999.jpg?v=1451463665,,,,,,,,,,,,,,,,,,,,Clothings
gin-lane-greenport-cotton-shirt-8,Gin Lane Greenport Cotton Shirt,"<p>Lorem Ipsum is simply dummy text of the printing and typesetting industry. Lorem Ipsum has been the industry's standard dummy text ever since the 1500s, when an unknown printer took a galley of type and scrambled it to make a type specimen book.</p>
<p>It has survived not only five centuries, but also the leap into electronic typesetting, remaining essentially unchanged. It was popularised in the 1960s with the release of Letraset sheets containing Lorem Ipsum passages, and more recently with desktop publishing software like Aldus PageMaker including versions of Lorem Ipsum.</p>",Kill City,Shirts,Blue,TRUE,Size,Blue,,,,,'0,0,shopify,0,deny,manual,99,,TRUE,TRUE,,https://cdn.shopify.com/s/files/1/1065/1422/products/1_fd8b2807-c94d-4b86-bee0-76c7c67895d0.jpg?v=1451463690,,FALSE,,,,,,,,,,,,,,,,,kg,Clothings
gin-lane-greenport-cotton-shirt-8,,,,,,,,,,,,,,,,,,,,,,,,https://cdn.shopify.com/s/files/1/1065/1422/products/2_bbb95c31-c4d6-489e-9126-2239b374eeae.jpg?v=1451463690,,,,,,,,,,,,,,,,,,,,Clothings
gin-lane-greenport-cotton-shirt-8,,,,,,,,,,,,,,,,,,,,,,,,https://cdn.shopify.com/s/files/1/1065/1422/products/1_350b23f6-8f12-4441-bcc6-df42ef19bf49.jpg?v=1451463713,,,,,,,,,,,,,,,,,,,,Clothings
gin-lane-greenport-cotton-shirt-8,,,,,,,,,,,,,,,,,,,,,,,,https://cdn.shopify.com/s/files/1/1065/1422/products/2_7f7b1589-d168-4dba-a036-54e583668194.jpg?v=1451463723,,,,,,,,,,,,,,,,,,,,Clothings
gin-lane-greenport-cotton-shirt-9,Gin Lane Greenport Cotton Shirt,"<p>Lorem Ipsum is simply dummy text of the printing and typesetting industry. Lorem Ipsum has been the industry's standard dummy text ever since the 1500s, when an unknown printer took a galley of type and scrambled it to make a type specimen book.</p>
<p>It has survived not only five centuries, but also the leap into electronic typesetting, remaining essentially unchanged. It was popularised in the 1960s with the release of Letraset sheets containing Lorem Ipsum passages, and more recently with desktop publishing software like Aldus PageMaker including versions of Lorem Ipsum.</p>",Kill City,Shirts,Blue,TRUE,Color,Blue,,,,,,0,shopify,0,deny,manual,249,300,TRUE,TRUE,,https://cdn.shopify.com/s/files/1/1065/1422/products/1_003d2af2-a39d-45c7-b76a-64f8fbc9a9b4.jpg?v=1450779736,,FALSE,,,,,,,,,,,,,,,,,kg,Sock
gin-lane-greenport-cotton-shirt-9,,,,,,,,,,,,,,,,,,,,,,,,https://cdn.shopify.com/s/files/1/1065/1422/products/2_1f09a285-be2f-446b-9177-e39d02f64b31.jpg?v=1450779745,,,,,,,,,,,,,,,,,,,,
gin-lane-greenport-cotton-shirt-9,,,,,,,,,,,,,,,,,,,,,,,,https://cdn.shopify.com/s/files/1/1065/1422/products/1_206b3d49-86d7-4bfe-870e-d60f1c476f16.jpg?v=1451463761,,,,,,,,,,,,,,,,,,,,Accessories
gin-lane-greenport-cotton-shirt-9,,,,,,,,,,,,,,,,,,,,,,,,https://cdn.shopify.com/s/files/1/1065/1422/products/2_5df0667c-21ee-44d2-9d12-047a581ab757.jpg?v=1451463770,,,,,,,,,,,,,,,,,,,,Accessories
gin-lane-greenport-cotton-shirt-10,Gin Lane Greenport Cotton Shirt,"<p>Lorem Ipsum is simply dummy text of the printing and typesetting industry. Lorem Ipsum has been the industry's standard dummy text ever since the 1500s, when an unknown printer took a galley of type and scrambled it to make a type specimen book.</p>
<p>It has survived not only five centuries, but also the leap into electronic typesetting, remaining essentially unchanged. It was popularised in the 1960s with the release of Letraset sheets containing Lorem Ipsum passages, and more recently with desktop publishing software like Aldus PageMaker including versions of Lorem Ipsum.</p>",Nike,Shoes,"$400  -  $500, Blue",TRUE,Color,BLue,,,,,,0,,1,deny,manual,0,,TRUE,TRUE,,https://cdn.shopify.com/s/files/1/1065/1422/products/1_a640085e-d105-40a7-8cec-9bdd4df582ff.jpg?v=1450779851,,FALSE,,,,,,,,,,,,,,,,,kg,Shoes
gin-lane-greenport-cotton-shirt-10,,,,,,,,,,,,,,,,,,,,,,,,https://cdn.shopify.com/s/files/1/1065/1422/products/2_6c74d981-2533-4a2c-8663-ed9d93466ebb.jpg?v=1450779868,,,,,,,,,,,,,,,,,,,,Shoes
gin-lane-greenport-cotton-shirt-10,,,,,,,,,,,,,,,,,,,,,,,,https://cdn.shopify.com/s/files/1/1065/1422/products/3_96d20ca6-662c-4e8b-84f9-834924d2b24c.jpg?v=1450779882,,,,,,,,,,,,,,,,,,,,Shoes
gin-lane-greenport-cotton-shirt-10,,,,,,,,,,,,,,,,,,,,,,,,https://cdn.shopify.com/s/files/1/1065/1422/products/1_b909ab59-9843-4a87-b2ca-ebaa23683274.jpg?v=1450779890,,,,,,,,,,,,,,,,,,,,Shoes
gin-lane-greenport-cotton-shirt-10,,,,,,,,,,,,,,,,,,,,,,,,https://cdn.shopify.com/s/files/1/1065/1422/products/2_030146a4-98d1-4738-9229-1b5cfabad68f.jpg?v=1450779895,,,,,,,,,,,,,,,,,,,,Shoes
gin-lane-greenport-cotton-shirt-10,,,,,,,,,,,,,,,,,,,,,,,,https://cdn.shopify.com/s/files/1/1065/1422/products/3_35b57bcb-5e67-4986-b9de-bc6bd3a119ca.jpg?v=1450779901,,,,,,,,,,,,,,,,,,,,Shoes
gin-lane-greenport-cotton-shirt-11,Gin Lane Greenport Cotton Shirt,"<p>Lorem Ipsum is simply dummy text of the printing and typesetting industry. Lorem Ipsum has been the industry's standard dummy text ever since the 1500s, when an unknown printer took a galley of type and scrambled it to make a type specimen book.</p>
<p>It has survived not only five centuries, but also the leap into electronic typesetting, remaining essentially unchanged. It was popularised in the 1960s with the release of Letraset sheets containing Lorem Ipsum passages, and more recently with desktop publishing software like Aldus PageMaker including versions of Lorem Ipsum.</p>",Kill City,Jacket,"gray, L, M, XL",TRUE,Col,Gray,Size,M,,,,0,,1,deny,manual,179,,TRUE,TRUE,,https://cdn.shopify.com/s/files/1/1065/1422/products/1_3e845a74-abe9-4b98-8569-7e9020afa327.jpg?v=1450780236,,FALSE,,,,,,,,,,,,,,,,,kg,Jacket
gin-lane-greenport-cotton-shirt-11,,,,,,,,Gray,,L,,,,0,,1,deny,manual,179,,TRUE,TRUE,,https://cdn.shopify.com/s/files/1/1065/1422/products/2_b8e80457-7a69-4720-955f-4390c2216dc2.jpg?v=1450780247,,,,,,,,,,,,,,,,,,,kg,Jacket
gin-lane-greenport-cotton-shirt-11,,,,,,,,Gray,,XL,,,,0,,1,deny,manual,179,,TRUE,TRUE,,https://cdn.shopify.com/s/files/1/1065/1422/products/3_b0bfb5f1-b9ad-4629-a4e2-6413745ffacd.jpg?v=1450780256,,,,,,,,,,,,,,,,,,,kg,Jacket
gin-lane-greenport-cotton-shirt-11,,,,,,,,,,,,,,,,,,,,,,,,https://cdn.shopify.com/s/files/1/1065/1422/products/1_446e3a51-1b79-42ba-ba6c-a9c03bcbfda3.jpg?v=1450780267,,,,,,,,,,,,,,,,,,,,Jacket
gin-lane-greenport-cotton-shirt-11,,,,,,,,,,,,,,,,,,,,,,,,https://cdn.shopify.com/s/files/1/1065/1422/products/2_a3e6b98d-f393-436b-b25c-10478b36c0c2.jpg?v=1450780281,,,,,,,,,,,,,,,,,,,,Jacket
gin-lane-greenport-cotton-shirt-11,,,,,,,,,,,,,,,,,,,,,,,,https://cdn.shopify.com/s/files/1/1065/1422/products/3_0bf3f3a8-fdae-4f28-aa54-eee7e24f634d.jpg?v=1450780293,,,,,,,,,,,,,,,,,,,,Jacket
gin-lane-greenport-cotton-shirt-12,Gin Lane Greenport Cotton Shirt,"<p>Lorem Ipsum is simply dummy text of the printing and typesetting industry. Lorem Ipsum has been the industry's standard dummy text ever since the 1500s, when an unknown printer took a galley of type and scrambled it to make a type specimen book.</p>
<p>It has survived not only five centuries, but also the leap into electronic typesetting, remaining essentially unchanged. It was popularised in the 1960s with the release of Letraset sheets containing Lorem Ipsum passages, and more recently with desktop publishing software like Aldus PageMaker including versions of Lorem Ipsum.</p>",Kill City,Trousers,"$100 - $200, Red",TRUE,Color,Red,,,,,,0,,1,deny,manual,140,,TRUE,TRUE,,https://cdn.shopify.com/s/files/1/1065/1422/products/1_b059ae4c-31d3-416e-804a-c0fbc6f7bad6.jpg?v=1450780667,,FALSE,,,,,,,,,,,,,,,,,kg,Jacket
gin-lane-greenport-cotton-shirt-12,,,,,,,,,,,,,,,,,,,,,,,,https://cdn.shopify.com/s/files/1/1065/1422/products/2_38d7b0fb-8e6f-4429-83a0-cf7d9b98cba9.jpg?v=1450780677,,,,,,,,,,,,,,,,,,,,Jacket
gin-lane-greenport-cotton-shirt-12,,,,,,,,,,,,,,,,,,,,,,,,https://cdn.shopify.com/s/files/1/1065/1422/products/1_157c1891-eb0a-4fc5-9a7b-82f4c57e270c.jpg?v=1450780683,,,,,,,,,,,,,,,,,,,,Jacket
gin-lane-greenport-cotton-shirt-12,,,,,,,,,,,,,,,,,,,,,,,,https://cdn.shopify.com/s/files/1/1065/1422/products/2_acb7be01-82f2-4edf-a5b3-11894d89ea04.jpg?v=1450780691,,,,,,,,,,,,,,,,,,,,Jacket
gin-lane-greenport-cotton-shirt-13,Gin Lane Greenport Cotton Shirt,"<p>Lorem Ipsum is simply dummy text of the printing and typesetting industry. Lorem Ipsum has been the industry's standard dummy text ever since the 1500s, when an unknown printer took a galley of type and scrambled it to make a type specimen book.</p>
<p>It has survived not only five centuries, but also the leap into electronic typesetting, remaining essentially unchanged. It was popularised in the 1960s with the release of Letraset sheets containing Lorem Ipsum passages, and more recently with desktop publishing software like Aldus PageMaker including versions of Lorem Ipsum.</p>",Nike,Hat,"$35  -  $100, gray",TRUE,Title,Default Title,,,,,,0,,1,deny,manual,39,,TRUE,TRUE,,https://cdn.shopify.com/s/files/1/1065/1422/products/1_1f18bf83-a348-4a09-9103-0a4f2e506cbb.jpg?v=1450780759,,FALSE,,,,,,,,,,,,,,,,,kg,Jacket
gin-lane-greenport-cotton-shirt-13,,,,,,,,,,,,,,,,,,,,,,,,https://cdn.shopify.com/s/files/1/1065/1422/products/2_347fad4c-067b-4bbe-b403-01e497c1d29f.jpg?v=1450780766,,,,,,,,,,,,,,,,,,,,Jacket
gin-lane-greenport-cotton-shirt-13,,,,,,,,,,,,,,,,,,,,,,,,https://cdn.shopify.com/s/files/1/1065/1422/products/3_29bc1874-d292-4528-a640-0f4f0209aa83.jpg?v=1450780777,,,,,,,,,,,,,,,,,,,,Jacket
gin-lane-greenport-cotton-shirt-13,,,,,,,,,,,,,,,,,,,,,,,,https://cdn.shopify.com/s/files/1/1065/1422/products/1_d5a1d81e-35bb-4fe4-aaa3-929143e18779.jpg?v=1450780784,,,,,,,,,,,,,,,,,,,,Jacket
gin-lane-greenport-cotton-shirt-13,,,,,,,,,,,,,,,,,,,,,,,,https://cdn.shopify.com/s/files/1/1065/1422/products/2_2086630e-1211-414b-90d5-00c797c6f81e.jpg?v=1450780800,,,,,,,,,,,,,,,,,,,,Jacket
gin-lane-greenport-cotton-shirt-13,,,,,,,,,,,,,,,,,,,,,,,,https://cdn.shopify.com/s/files/1/1065/1422/products/3_2cdc250d-026d-4f68-a0f6-cb6de06777a6.jpg?v=1450780815,,,,,,,,,,,,,,,,,,,,Jacket
gin-lane-greenport-cotton-shirt-15,Gin Lane Greenport Cotton Shirt,"<p>Lorem Ipsum is simply dummy text of the printing and typesetting industry. Lorem Ipsum has been the industry's standard dummy text ever since the 1500s, when an unknown printer took a galley of type and scrambled it to make a type specimen book.</p>
<p>It has survived not only five centuries, but also the leap into electronic typesetting, remaining essentially unchanged. It was popularised in the 1960s with the release of Letraset sheets containing Lorem Ipsum passages, and more recently with desktop publishing software like Aldus PageMaker including versions of Lorem Ipsum.</p>",Nike,Shoes,"$300  -  $400, gray",TRUE,Title,Default Title,,,,,,0,,1,deny,manual,349,,TRUE,TRUE,,https://cdn.shopify.com/s/files/1/1065/1422/products/1_7b6ec976-6b1d-4431-b85f-57959e7a3deb.jpg?v=1450839263,,FALSE,,,,,,,,,,,,,,,,,kg,Shoes
gin-lane-greenport-cotton-shirt-15,,,,,,,,,,,,,,,,,,,,,,,,https://cdn.shopify.com/s/files/1/1065/1422/products/2_c7cc02a7-e255-44e8-ab0e-a18b5f6d42c7.jpg?v=1450839271,,,,,,,,,,,,,,,,,,,,Shoes
gin-lane-greenport-cotton-shirt-15,,,,,,,,,,,,,,,,,,,,,,,,https://cdn.shopify.com/s/files/1/1065/1422/products/3_3912cbfc-abf1-450d-9c67-4fa0ac7d56cc.jpg?v=1450839278,,,,,,,,,,,,,,,,,,,,Shoes
gin-lane-greenport-cotton-shirt-15,,,,,,,,,,,,,,,,,,,,,,,,https://cdn.shopify.com/s/files/1/1065/1422/products/2_a611fbff-3c7e-45c2-8ba7-075831fa6896.jpg?v=1450839287,,,,,,,,,,,,,,,,,,,,Shoes
gin-lane-greenport-cotton-shirt-15,,,,,,,,,,,,,,,,,,,,,,,,https://cdn.shopify.com/s/files/1/1065/1422/products/3_4f6d8cb1-9d08-4eac-9cf3-8bc91942101d.jpg?v=1450839295,,,,,,,,,,,,,,,,,,,,Shoes
gin-lane-greenport-cotton-shirt-16,Gin Lane Greenport Cotton Shirt,"<p>Lorem Ipsum is simply dummy text of the printing and typesetting industry. Lorem Ipsum has been the industry's standard dummy text ever since the 1500s, when an unknown printer took a galley of type and scrambled it to make a type specimen book.</p>
<p>It has survived not only five centuries, but also the leap into electronic typesetting, remaining essentially unchanged. It was popularised in the 1960s with the release of Letraset sheets containing Lorem Ipsum passages, and more recently with desktop publishing software like Aldus PageMaker including versions of Lorem Ipsum.</p>",Kill City,Jacket,"$200 - $300, gray, L, M",TRUE,Size,M,Color,Gray,,,,0,,1,deny,manual,259,300,TRUE,TRUE,,https://cdn.shopify.com/s/files/1/1065/1422/products/1_f62fa893-b760-442e-9913-f891954a71f4.jpg?v=1450839453,,FALSE,,,,,,,,,,,,,,,,,kg,Jacket
gin-lane-greenport-cotton-shirt-16,,,,,,,,L,,Gray,,,,0,,1,deny,manual,259,300,TRUE,TRUE,,https://cdn.shopify.com/s/files/1/1065/1422/products/2_5ba17c8a-a25d-45b8-bcfb-ea75c9011b41.jpg?v=1450839461,,,,,,,,,,,,,,,,,,,kg,Jacket
gin-lane-greenport-cotton-shirt-16,,,,,,,,,,,,,,,,,,,,,,,,https://cdn.shopify.com/s/files/1/1065/1422/products/3_fc014fb7-770a-48dd-8b83-a21303079dbf.jpg?v=1450839470,,,,,,,,,,,,,,,,,,,,Jacket
gin-lane-greenport-cotton-shirt-16,,,,,,,,,,,,,,,,,,,,,,,,https://cdn.shopify.com/s/files/1/1065/1422/products/4_c6c95e4a-3a8c-4665-9ad2-9aacb378710e.jpg?v=1450839477,,,,,,,,,,,,,,,,,,,,Jacket
gin-lane-greenport-cotton-shirt-16,,,,,,,,,,,,,,,,,,,,,,,,https://cdn.shopify.com/s/files/1/1065/1422/products/5_4a86bda5-dc67-4006-875a-332b51bd97df.jpg?v=1450839489,,,,,,,,,,,,,,,,,,,,Jacket
gin-lane-greenport-cotton-shirt-16,,,,,,,,,,,,,,,,,,,,,,,,https://cdn.shopify.com/s/files/1/1065/1422/products/6_c28a03da-30b8-4d1f-8ce0-7002844af813.jpg?v=1450839494,,,,,,,,,,,,,,,,,,,,Jacket
gin-lane-greenport-cotton-shirt-16,,,,,,,,,,,,,,,,,,,,,,,,https://cdn.shopify.com/s/files/1/1065/1422/products/7_a44c7448-5c52-4443-820b-115b681c73ef.jpg?v=1450839500,,,,,,,,,,,,,,,,,,,,Jacket
gin-lane-greenport-cotton-shirt-17,Gin Lane Greenport Cotton Shirt,"<p>Lorem Ipsum is simply dummy text of the printing and typesetting industry. Lorem Ipsum has been the industry's standard dummy text ever since the 1500s, when an unknown printer took a galley of type and scrambled it to make a type specimen book.</p>
<p>It has survived not only five centuries, but also the leap into electronic typesetting, remaining essentially unchanged. It was popularised in the 1960s with the release of Letraset sheets containing Lorem Ipsum passages, and more recently with desktop publishing software like Aldus PageMaker including versions of Lorem Ipsum.</p>",Baby Milo,Trousers,"$35  -  $100, Blue",TRUE,Color,Blue,,,,,,0,,1,deny,manual,99,,TRUE,TRUE,,https://cdn.shopify.com/s/files/1/1065/1422/products/1_96bde718-8b8f-407d-8a41-f7b34c9464e0.jpg?v=1450839738,,FALSE,,,,,,,,,,,,,,,,,kg,Accessories
gin-lane-greenport-cotton-shirt-17,,,,,,,,,,,,,,,,,,,,,,,,https://cdn.shopify.com/s/files/1/1065/1422/products/2_de7f0ed7-31d7-41ce-9f63-a30484fe35b1.jpg?v=1450839743,,,,,,,,,,,,,,,,,,,,
gin-lane-greenport-cotton-shirt-17,,,,,,,,,,,,,,,,,,,,,,,,https://cdn.shopify.com/s/files/1/1065/1422/products/1_16416fe2-0273-4932-bd02-d956df8f075d.jpg?v=1450839749,,,,,,,,,,,,,,,,,,,,
gin-lane-greenport-cotton-shirt-17,,,,,,,,,,,,,,,,,,,,,,,,https://cdn.shopify.com/s/files/1/1065/1422/products/2_2e7e9a1f-51a2-4fb9-b438-29af41e6725d.jpg?v=1450839757,,,,,,,,,,,,,,,,,,,,
gin-lane-greenport-cotton-shirt-18,Gin Lane Greenport Cotton Shirt,"<p>Lorem Ipsum is simply dummy text of the printing and typesetting industry. Lorem Ipsum has been the industry's standard dummy text ever since the 1500s, when an unknown printer took a galley of type and scrambled it to make a type specimen book.</p>
<p>It has survived not only five centuries, but also the leap into electronic typesetting, remaining essentially unchanged. It was popularised in the 1960s with the release of Letraset sheets containing Lorem Ipsum passages, and more recently with desktop publishing software like Aldus PageMaker including versions of Lorem Ipsum.</p>",Baby Milo,Hat,"$35  -  $100, dask",TRUE,Color,Dask,,,,,,0,,1,deny,manual,45,59,TRUE,TRUE,,https://cdn.shopify.com/s/files/1/1065/1422/products/1_9aa69cb6-3553-47ee-b516-072781b694ba.jpg?v=1450839835,,FALSE,,,,,,,,,,,,,,,,,kg,Hat
gin-lane-greenport-cotton-shirt-18,,,,,,,,,,,,,,,,,,,,,,,,https://cdn.shopify.com/s/files/1/1065/1422/products/2_5a8ed500-ac4e-411a-91b3-ce616ab2f9f6.jpg?v=1450839848,,,,,,,,,,,,,,,,,,,,Hat
gin-lane-greenport-cotton-shirt-18,,,,,,,,,,,,,,,,,,,,,,,,https://cdn.shopify.com/s/files/1/1065/1422/products/3_c68ab8ff-5662-4ec6-bcf2-9becf5ef65f2.jpg?v=1450839854,,,,,,,,,,,,,,,,,,,,Hat
gin-lane-greenport-cotton-shirt-18,,,,,,,,,,,,,,,,,,,,,,,,https://cdn.shopify.com/s/files/1/1065/1422/products/2_f22f72ad-449a-436c-8efc-9827d755e560.jpg?v=1450839862,,,,,,,,,,,,,,,,,,,,Hat
gin-lane-greenport-cotton-shirt-18,,,,,,,,,,,,,,,,,,,,,,,,https://cdn.shopify.com/s/files/1/1065/1422/products/3_cdbc8941-6832-49d6-9cdc-d16f80fe0886.jpg?v=1450839868,,,,,,,,,,,,,,,,,,,,Hat
gin-lane-greenport-cotton-shirt-19,Gin Lane Greenport Cotton Shirt,"<p>Lorem Ipsum is simply dummy text of the printing and typesetting industry. Lorem Ipsum has been the industry's standard dummy text ever since the 1500s, when an unknown printer took a galley of type and scrambled it to make a type specimen book.</p>
<p>It has survived not only five centuries, but also the leap into electronic typesetting, remaining essentially unchanged. It was popularised in the 1960s with the release of Letraset sheets containing Lorem Ipsum passages, and more recently with desktop publishing software like Aldus PageMaker including versions of Lorem Ipsum.</p>",Baby Milo,swatch,"$35  -  $100, brown",TRUE,Color,Brown,,,,,,0,,1,deny,manual,88,,TRUE,TRUE,,https://cdn.shopify.com/s/files/1/1065/1422/products/1_2e5e75fc-adbb-4036-b7a3-eeb604a617f6.jpg?v=1450839971,,FALSE,,,,,,,,,,,,,,,,,kg,Accessories
gin-lane-greenport-cotton-shirt-19,,,,,,,,,,,,,,,,,,,,,,,,https://cdn.shopify.com/s/files/1/1065/1422/products/2_4d1996b8-77ed-449b-9136-11fb1cc0cc7a.jpg?v=1450839981,,,,,,,,,,,,,,,,,,,,Accessories
gin-lane-greenport-cotton-shirt-19,,,,,,,,,,,,,,,,,,,,,,,,https://cdn.shopify.com/s/files/1/1065/1422/products/3_148800f8-4587-40b5-be68-e30e501552be.jpg?v=1450839992,,,,,,,,,,,,,,,,,,,,Accessories
gin-lane-greenport-cotton-shirt-19,,,,,,,,,,,,,,,,,,,,,,,,https://cdn.shopify.com/s/files/1/1065/1422/products/1_6e606c58-cd78-48c0-9f5a-f8ac7b6ef4da.jpg?v=1450840001,,,,,,,,,,,,,,,,,,,,Accessories
gin-lane-greenport-cotton-shirt-19,,,,,,,,,,,,,,,,,,,,,,,,https://cdn.shopify.com/s/files/1/1065/1422/products/2_26f710ca-d8f5-4602-886c-61a4ad59c07d.jpg?v=1450840012,,,,,,,,,,,,,,,,,,,,Accessories
gin-lane-greenport-cotton-shirt-20,Gin Lane Greenport Cotton Shirt,"<p>Lorem Ipsum is simply dummy text of the printing and typesetting industry. Lorem Ipsum has been the industry's standard dummy text ever since the 1500s, when an unknown printer took a galley of type and scrambled it to make a type specimen book.</p>
<p>It has survived not only five centuries, but also the leap into electronic typesetting, remaining essentially unchanged. It was popularised in the 1960s with the release of Letraset sheets containing Lorem Ipsum passages, and more recently with desktop publishing software like Aldus PageMaker including versions of Lorem Ipsum.</p>",Nike,Shoes,"$100 - $200, white",TRUE,Color,White,,,,,,0,,1,deny,manual,139,500,TRUE,TRUE,,https://cdn.shopify.com/s/files/1/1065/1422/products/1_1cd058eb-95d9-4bca-87a7-e789654908fb.jpg?v=1450840092,,FALSE,,,,,,,,,,,,,,,,,kg,Shoes
gin-lane-greenport-cotton-shirt-20,,,,,,,,,,,,,,,,,,,,,,,,https://cdn.shopify.com/s/files/1/1065/1422/products/2_1f917baa-46e9-4972-9403-4cc000b27e3d.jpg?v=1450840097,,,,,,,,,,,,,,,,,,,,Shoes
gin-lane-greenport-cotton-shirt-20,,,,,,,,,,,,,,,,,,,,,,,,https://cdn.shopify.com/s/files/1/1065/1422/products/3_644d9737-e6f5-44cd-ac05-2cbd936a4c9c.jpg?v=1450840102,,,,,,,,,,,,,,,,,,,,Shoes
gin-lane-greenport-cotton-shirt-20,,,,,,,,,,,,,,,,,,,,,,,,https://cdn.shopify.com/s/files/1/1065/1422/products/1_f7199bb1-1701-416b-bcd1-b1370f3ebd3f.jpg?v=1450840106,,,,,,,,,,,,,,,,,,,,Shoes
gin-lane-greenport-cotton-shirt-20,,,,,,,,,,,,,,,,,,,,,,,,https://cdn.shopify.com/s/files/1/1065/1422/products/2_dd123b32-916d-4f55-aa95-0e93038e688c.jpg?v=1450840109,,,,,,,,,,,,,,,,,,,,Shoes
gin-lane-greenport-cotton-shirt-21,Gin Lane Greenport Cotton Shirt,"<p>Lorem Ipsum is simply dummy text of the printing and typesetting industry. Lorem Ipsum has been the industry's standard dummy text ever since the 1500s, when an unknown printer took a galley of type and scrambled it to make a type specimen book.</p>
<p>It has survived not only five centuries, but also the leap into electronic typesetting, remaining essentially unchanged. It was popularised in the 1960s with the release of Letraset sheets containing Lorem Ipsum passages, and more recently with desktop publishing software like Aldus PageMaker including versions of Lorem Ipsum.</p>",Kill City,Jacket,"$100 - $200, gray",TRUE,Color,Gray,,,,,,0,,1,deny,manual,169,,TRUE,TRUE,,https://cdn.shopify.com/s/files/1/1065/1422/products/1_9cc38c48-5180-4610-bc36-0c624a000f7f.jpg?v=1450840292,,FALSE,,,,,,,,,,,,,,,,,kg,New arrivals
gin-lane-greenport-cotton-shirt-21,,,,,,,,,,,,,,,,,,,,,,,,https://cdn.shopify.com/s/files/1/1065/1422/products/2_dfba2ae2-39d9-4e31-a83c-36c287042b77.jpg?v=1450840297,,,,,,,,,,,,,,,,,,,,New arrivals
gin-lane-greenport-cotton-shirt-21,,,,,,,,,,,,,,,,,,,,,,,,https://cdn.shopify.com/s/files/1/1065/1422/products/3_be0f0365-0c25-4e0d-975a-fab18cb5aa4a.jpg?v=1450840307,,,,,,,,,,,,,,,,,,,,New arrivals
gin-lane-greenport-cotton-shirt-21,,,,,,,,,,,,,,,,,,,,,,,,https://cdn.shopify.com/s/files/1/1065/1422/products/2_bf9200dc-f370-4b77-8def-a1c1843b133f.jpg?v=1450840314,,,,,,,,,,,,,,,,,,,,New arrivals
gin-lane-greenport-cotton-shirt-21,,,,,,,,,,,,,,,,,,,,,,,,https://cdn.shopify.com/s/files/1/1065/1422/products/3_8a0c85f9-a5e1-43a1-88c5-f01598579550.jpg?v=1450840323,,,,,,,,,,,,,,,,,,,,New arrivals
gin-lane-greenport-cotton-shirt-22,Gin Lane Greenport Cotton Shirt,"<p>Lorem Ipsum is simply dummy text of the printing and typesetting industry. Lorem Ipsum has been the industry's standard dummy text ever since the 1500s, when an unknown printer took a galley of type and scrambled it to make a type specimen book.</p>
<p>It has survived not only five centuries, but also the leap into electronic typesetting, remaining essentially unchanged. It was popularised in the 1960s with the release of Letraset sheets containing Lorem Ipsum passages, and more recently with desktop publishing software like Aldus PageMaker including versions of Lorem Ipsum.</p>",Baby Milo,Trousers,"$100 - $200, gray",TRUE,Color,Gray,,,,,,0,,1,deny,manual,140,,TRUE,TRUE,,https://cdn.shopify.com/s/files/1/1065/1422/products/1_cc4eaafe-2603-4c46-8e6d-38e3aa62ca86.jpg?v=1450840535,,FALSE,,,,,,,,,,,,,,,,,kg,
gin-lane-greenport-cotton-shirt-22,,,,,,,,,,,,,,,,,,,,,,,,https://cdn.shopify.com/s/files/1/1065/1422/products/2_1093ec7a-9b81-4770-ab7e-a3bd2cca13bc.jpg?v=1450840541,,,,,,,,,,,,,,,,,,,,
gin-lane-greenport-cotton-shirt-22,,,,,,,,,,,,,,,,,,,,,,,,https://cdn.shopify.com/s/files/1/1065/1422/products/1_6964c6cc-c365-491d-b698-fc89d09a51fa.jpg?v=1450840547,,,,,,,,,,,,,,,,,,,,
gin-lane-greenport-cotton-shirt-22,,,,,,,,,,,,,,,,,,,,,,,,https://cdn.shopify.com/s/files/1/1065/1422/products/2_c4c1fa56-f46e-4f80-8c88-83d2e2cd3b26.jpg?v=1450840553,,,,,,,,,,,,,,,,,,,,
gin-lane-greenport-cotton-shirt-23,Gin Lane Greenport Cotton Shirt,"<p>Lorem Ipsum is simply dummy text of the printing and typesetting industry. Lorem Ipsum has been the industry's standard dummy text ever since the 1500s, when an unknown printer took a galley of type and scrambled it to make a type specimen book.</p>
<p>It has survived not only five centuries, but also the leap into electronic typesetting, remaining essentially unchanged. It was popularised in the 1960s with the release of Letraset sheets containing Lorem Ipsum passages, and more recently with desktop publishing software like Aldus PageMaker including versions of Lorem Ipsum.</p>",Baby Milo,Hat,$35  -  $100,TRUE,Title,Default Title,,,,,,0,,1,deny,manual,35,,TRUE,TRUE,,https://cdn.shopify.com/s/files/1/1065/1422/products/1_ce4a9504-9374-4245-9b87-dfcb5722dbfa.jpg?v=1450840609,,FALSE,,,,,,,,,,,,,,,,,kg,Accessories
gin-lane-greenport-cotton-shirt-23,,,,,,,,,,,,,,,,,,,,,,,,https://cdn.shopify.com/s/files/1/1065/1422/products/2_0be5052f-8c85-476a-ac40-ba61b0b59058.jpg?v=1450840616,,,,,,,,,,,,,,,,,,,,Accessories
gin-lane-greenport-cotton-shirt-23,,,,,,,,,,,,,,,,,,,,,,,,https://cdn.shopify.com/s/files/1/1065/1422/products/3_ab3999df-fd08-45b8-9340-be76b74aaba4.jpg?v=1450840625,,,,,,,,,,,,,,,,,,,,Accessories
gin-lane-greenport-cotton-shirt-23,,,,,,,,,,,,,,,,,,,,,,,,https://cdn.shopify.com/s/files/1/1065/1422/products/2_51571ee5-9477-4aa3-bc5d-eba4596410bf.jpg?v=1450840635,,,,,,,,,,,,,,,,,,,,Accessories
gin-lane-greenport-cotton-shirt-24,Gin Lane Greenport Cotton Shirt,"<p>Lorem Ipsum is simply dummy text of the printing and typesetting industry. Lorem Ipsum has been the industry's standard dummy text ever since the 1500s, when an unknown printer took a galley of type and scrambled it to make a type specimen book.</p>
<p>It has survived not only five centuries, but also the leap into electronic typesetting, remaining essentially unchanged. It was popularised in the 1960s with the release of Letraset sheets containing Lorem Ipsum passages, and more recently with desktop publishing software like Aldus PageMaker including versions of Lorem Ipsum.</p>",Baby Milo,Hat,$35  -  $100,TRUE,Title,Default Title,,,,,,0,,1,deny,manual,40,,TRUE,TRUE,,https://cdn.shopify.com/s/files/1/1065/1422/products/1_2320b5b8-b578-4a9d-bd94-33b9f90fddda.jpg?v=1450840653,,FALSE,,,,,,,,,,,,,,,,,kg,Accessories
gin-lane-greenport-cotton-shirt-24,,,,,,,,,,,,,,,,,,,,,,,,https://cdn.shopify.com/s/files/1/1065/1422/products/2_58765a60-1a15-4e6b-9e3d-23a442cebb2f.jpg?v=1450840661,,,,,,,,,,,,,,,,,,,,Accessories
gin-lane-greenport-cotton-shirt-24,,,,,,,,,,,,,,,,,,,,,,,,https://cdn.shopify.com/s/files/1/1065/1422/products/3_4a1d24ed-ec1a-42ff-951c-f08eb6c142d6.jpg?v=1450840672,,,,,,,,,,,,,,,,,,,,Accessories
gin-lane-greenport-cotton-shirt-25,Gin Lane Greenport Cotton Shirt,"<p>Lorem Ipsum is simply dummy text of the printing and typesetting industry. Lorem Ipsum has been the industry's standard dummy text ever since the 1500s, when an unknown printer took a galley of type and scrambled it to make a type specimen book.</p>
<p>It has survived not only five centuries, but also the leap into electronic typesetting, remaining essentially unchanged. It was popularised in the 1960s with the release of Letraset sheets containing Lorem Ipsum passages, and more recently with desktop publishing software like Aldus PageMaker including versions of Lorem Ipsum.</p>",Baby Milo,swatch,"$100 - $200, dask",TRUE,Title,Default Title,,,,,,0,,1,deny,manual,159,,TRUE,TRUE,,https://cdn.shopify.com/s/files/1/1065/1422/products/1_d2d02c67-c28b-4d6b-8772-50728bb28b17.jpg?v=1450840732,,FALSE,,,,,,,,,,,,,,,,,kg,Accessories
gin-lane-greenport-cotton-shirt-25,,,,,,,,,,,,,,,,,,,,,,,,https://cdn.shopify.com/s/files/1/1065/1422/products/2_155e1b07-0d7a-4350-9573-399df32b4eb5.jpg?v=1450840749,,,,,,,,,,,,,,,,,,,,Accessories
gin-lane-greenport-cotton-shirt-25,,,,,,,,,,,,,,,,,,,,,,,,https://cdn.shopify.com/s/files/1/1065/1422/products/3_3f0b9078-7340-4ea9-9aea-200da9dc2a55.jpg?v=1450840775,,,,,,,,,,,,,,,,,,,,Accessories
gin-lane-greenport-cotton-shirt-26,Gin Lane Greenport Cotton Shirt,"<p>Lorem Ipsum is simply dummy text of the printing and typesetting industry. Lorem Ipsum has been the industry's standard dummy text ever since the 1500s, when an unknown printer took a galley of type and scrambled it to make a type specimen book.</p>
<p>It has survived not only five centuries, but also the leap into electronic typesetting, remaining essentially unchanged. It was popularised in the 1960s with the release of Letraset sheets containing Lorem Ipsum passages, and more recently with desktop publishing software like Aldus PageMaker including versions of Lorem Ipsum.</p>",Nike,Shoes,"$100 - $200, brown",TRUE,Color,Brown,,,,,,0,,1,deny,manual,179,,TRUE,TRUE,,https://cdn.shopify.com/s/files/1/1065/1422/products/1_311b744b-93bd-44d5-b9bf-03a06a27442f.jpg?v=1450840851,,FALSE,,,,,,,,,,,,,,,,,kg,Shoes
gin-lane-greenport-cotton-shirt-26,,,,,,,,,,,,,,,,,,,,,,,,https://cdn.shopify.com/s/files/1/1065/1422/products/2_12a47953-7e04-4bb5-bc03-19e5b03f9c16.jpg?v=1450840885,,,,,,,,,,,,,,,,,,,,Shoes
gin-lane-greenport-cotton-shirt-26,,,,,,,,,,,,,,,,,,,,,,,,https://cdn.shopify.com/s/files/1/1065/1422/products/3_2f26f667-6230-46e9-a1a6-6dce2b9686ea.jpg?v=1450840899,,,,,,,,,,,,,,,,,,,,Shoes
gin-lane-greenport-cotton-shirt-26,,,,,,,,,,,,,,,,,,,,,,,,https://cdn.shopify.com/s/files/1/1065/1422/products/4_da0375be-8b60-48e6-8b0f-d2474504f624.jpg?v=1450840919,,,,,,,,,,,,,,,,,,,,Shoes
gin-lane-greenport-cotton-shirt-27,Gin Lane Greenport Cotton Shirt,"<p>Lorem Ipsum is simply dummy text of the printing and typesetting industry. Lorem Ipsum has been the industry's standard dummy text ever since the 1500s, when an unknown printer took a galley of type and scrambled it to make a type specimen book.</p>
<p>It has survived not only five centuries, but also the leap into electronic typesetting, remaining essentially unchanged. It was popularised in the 1960s with the release of Letraset sheets containing Lorem Ipsum passages, and more recently with desktop publishing software like Aldus PageMaker including versions of Lorem Ipsum.</p>",Baby Milo,Jacket,"$100 - $200, L, M, white, XL",TRUE,Size,L,Color,White,,,,0,,1,deny,manual,155,,TRUE,TRUE,,https://cdn.shopify.com/s/files/1/1065/1422/products/1_50354ea9-e326-47d0-adf8-30e962f1eb74.jpg?v=1450840951,,FALSE,,,,,,,,,,,,,,,,,kg,New arrivals
gin-lane-greenport-cotton-shirt-27,,,,,,,,XL,,White,,,,0,,1,deny,manual,155,,TRUE,TRUE,,https://cdn.shopify.com/s/files/1/1065/1422/products/2_d10d1130-d1fa-4149-a51d-14f0a6d731d1.jpg?v=1450840973,,,,,,,,,,,,,,,,,,,kg,New arrivals
gin-lane-greenport-cotton-shirt-27,,,,,,,,M,,White,,,,0,,1,deny,manual,155,,TRUE,TRUE,,https://cdn.shopify.com/s/files/1/1065/1422/products/3_053f1465-2267-4518-b3da-94a8faf69afd.jpg?v=1450840999,,,,,,,,,,,,,,,,,,,kg,New arrivals
gin-lane-greenport-cotton-shirt-27,,,,,,,,,,,,,,,,,,,,,,,,https://cdn.shopify.com/s/files/1/1065/1422/products/1_a8891242-ef8b-48ce-b019-2ab938d006ba.jpg?v=1450841041,,,,,,,,,,,,,,,,,,,,New arrivals
gin-lane-greenport-cotton-shirt-28,Gin Lane Greenport Cotton Shirt,"<p>Lorem Ipsum is simply dummy text of the printing and typesetting industry. Lorem Ipsum has been the industry's standard dummy text ever since the 1500s, when an unknown printer took a galley of type and scrambled it to make a type specimen book.</p>
<p>It has survived not only five centuries, but also the leap into electronic typesetting, remaining essentially unchanged. It was popularised in the 1960s with the release of Letraset sheets containing Lorem Ipsum passages, and more recently with desktop publishing software like Aldus PageMaker including versions of Lorem Ipsum.</p>",Baby Milo,Trousers,"$100 - $200, dask",TRUE,Color,Dask,,,,,,0,,1,deny,manual,165,,TRUE,TRUE,,https://cdn.shopify.com/s/files/1/1065/1422/products/1_ddf2cd32-014c-47be-ae0c-be8967e30ad4.jpg?v=1450841049,,FALSE,,,,,,,,,,,,,,,,,kg,Clothings
gin-lane-greenport-cotton-shirt-28,,,,,,,,,,,,,,,,,,,,,,,,https://cdn.shopify.com/s/files/1/1065/1422/products/2_9750ed8e-d419-4a63-bc4c-0c2b596bf631.jpg?v=1450841077,,,,,,,,,,,,,,,,,,,,
gin-lane-greenport-cotton-shirt-28,,,,,,,,,,,,,,,,,,,,,,,,https://cdn.shopify.com/s/files/1/1065/1422/products/1_fb98d1d2-a489-4fef-b3de-b513d03f0b25.jpg?v=1450841094,,,,,,,,,,,,,,,,,,,,
gin-lane-greenport-cotton-shirt-28,,,,,,,,,,,,,,,,,,,,,,,,https://cdn.shopify.com/s/files/1/1065/1422/products/2_bebdf56e-f4e0-47a0-983c-c71374d14beb.jpg?v=1450841115,,,,,,,,,,,,,,,,,,,,Clothings
gin-lane-greenport-cotton-shirt-29,Gin Lane Greenport Cotton Shirt,"<p>Lorem Ipsum is simply dummy text of the printing and typesetting industry. Lorem Ipsum has been the industry's standard dummy text ever since the 1500s, when an unknown printer took a galley of type and scrambled it to make a type specimen book.</p>
<p>It has survived not only five centuries, but also the leap into electronic typesetting, remaining essentially unchanged. It was popularised in the 1960s with the release of Letraset sheets containing Lorem Ipsum passages, and more recently with desktop publishing software like Aldus PageMaker including versions of Lorem Ipsum.</p>",Baby Milo,Hat,"$35  -  $100, Red",TRUE,Color,Red,,,,,,0,,1,deny,manual,45,,TRUE,TRUE,,https://cdn.shopify.com/s/files/1/1065/1422/products/1_ef015d32-65bd-4f66-a248-28d24851a6ad.jpg?v=1450841468,,FALSE,,,,,,,,,,,,,,,,,kg,Clothings
gin-lane-greenport-cotton-shirt-29,,,,,,,,,,,,,,,,,,,,,,,,https://cdn.shopify.com/s/files/1/1065/1422/products/2_1bf4cdb1-45be-4a46-b37c-34a2e2f5c35c.jpg?v=1450841479,,,,,,,,,,,,,,,,,,,,Clothings
gin-lane-greenport-cotton-shirt-29,,,,,,,,,,,,,,,,,,,,,,,,https://cdn.shopify.com/s/files/1/1065/1422/products/3_bfb0068e-98e6-4093-9461-11d3fca9c294.jpg?v=1450841495,,,,,,,,,,,,,,,,,,,,Clothings
gin-lane-greenport-cotton-shirt-29,,,,,,,,,,,,,,,,,,,,,,,,https://cdn.shopify.com/s/files/1/1065/1422/products/1_33f35f26-b86a-4e0d-89ba-bda4f9feb7da.jpg?v=1450841509,,,,,,,,,,,,,,,,,,,,Clothings
gin-lane-greenport-cotton-shirt-29,,,,,,,,,,,,,,,,,,,,,,,,https://cdn.shopify.com/s/files/1/1065/1422/products/2_f90aaee5-0fe0-41fb-8c9c-54a383ef3ed8.jpg?v=1450841522,,,,,,,,,,,,,,,,,,,,Clothings
gin-lane-greenport-cotton-shirt-30,Gin Lane Greenport Cotton Shirt,"<p>Lorem Ipsum is simply dummy text of the printing and typesetting industry. Lorem Ipsum has been the industry's standard dummy text ever since the 1500s, when an unknown printer took a galley of type and scrambled it to make a type specimen book.</p>
<p>It has survived not only five centuries, but also the leap into electronic typesetting, remaining essentially unchanged. It was popularised in the 1960s with the release of Letraset sheets containing Lorem Ipsum passages, and more recently with desktop publishing software like Aldus PageMaker including versions of Lorem Ipsum.</p>",Baby Milo,Sock,$35  -  $100,TRUE,Title,Default Title,,,,,,0,,1,deny,manual,35,,TRUE,TRUE,,https://cdn.shopify.com/s/files/1/1065/1422/products/4_1369867f-943d-4a6a-b5b7-01ebc150fdd6.jpg?v=1450841592,,FALSE,,,,,,,,,,,,,,,,,kg,Clothings
gin-lane-greenport-cotton-shirt-30,,,,,,,,,,,,,,,,,,,,,,,,https://cdn.shopify.com/s/files/1/1065/1422/products/5_e3bcfa05-0b3a-41ae-8c8f-1dc37bde4971.jpg?v=1450841607,,,,,,,,,,,,,,,,,,,,Clothings
gin-lane-greenport-cotton-shirt-30,,,,,,,,,,,,,,,,,,,,,,,,https://cdn.shopify.com/s/files/1/1065/1422/products/6_9b560b25-9383-4b6d-b92f-173f7154a1a1.jpg?v=1450841615,,,,,,,,,,,,,,,,,,,,Clothings
gin-lane-greenport-cotton-shirt-30,,,,,,,,,,,,,,,,,,,,,,,,https://cdn.shopify.com/s/files/1/1065/1422/products/7_9e3a8a67-14a5-4de0-961c-46791a92f76e.jpg?v=1450841623,,,,,,,,,,,,,,,,,,,,Clothings
gin-lane-greenport-cotton-shirt-31,Gin Lane Greenport Cotton Shirt,"<p>Lorem Ipsum is simply dummy text of the printing and typesetting industry. Lorem Ipsum has been the industry's standard dummy text ever since the 1500s, when an unknown printer took a galley of type and scrambled it to make a type specimen book.</p>
<p>It has survived not only five centuries, but also the leap into electronic typesetting, remaining essentially unchanged. It was popularised in the 1960s with the release of Letraset sheets containing Lorem Ipsum passages, and more recently with desktop publishing software like Aldus PageMaker including versions of Lorem Ipsum.</p>",Baby Milo,swatch,$200 - $300,TRUE,Title,Default Title,,,,,,0,,1,deny,manual,255,,TRUE,TRUE,,https://cdn.shopify.com/s/files/1/1065/1422/products/1_c1dafd65-3705-49e3-8544-0d704d54a9af.jpg?v=1450841717,,FALSE,,,,,,,,,,,,,,,,,kg,Clothings
gin-lane-greenport-cotton-shirt-31,,,,,,,,,,,,,,,,,,,,,,,,https://cdn.shopify.com/s/files/1/1065/1422/products/2_7b3b7ce2-d720-4f17-98ec-351a0f2f20a4.jpg?v=1450841733,,,,,,,,,,,,,,,,,,,,Clothings
gin-lane-greenport-cotton-shirt-31,,,,,,,,,,,,,,,,,,,,,,,,https://cdn.shopify.com/s/files/1/1065/1422/products/3_e1cdc23b-1abc-4323-a9af-0e50c4f05b52.jpg?v=1450841758,,,,,,,,,,,,,,,,,,,,Clothings
gin-lane-greenport-cotton-shirt-32,Gin Lane Greenport Cotton Shirt,"<p>Lorem Ipsum is simply dummy text of the printing and typesetting industry. Lorem Ipsum has been the industry's standard dummy text ever since the 1500s, when an unknown printer took a galley of type and scrambled it to make a type specimen book.</p>
<p>It has survived not only five centuries, but also the leap into electronic typesetting, remaining essentially unchanged. It was popularised in the 1960s with the release of Letraset sheets containing Lorem Ipsum passages, and more recently with desktop publishing software like Aldus PageMaker including versions of Lorem Ipsum.</p>",Baby Milo,Shoes,"$100 - $200, gray",TRUE,Color,Gray,,,,,,0,,1,deny,manual,200,,TRUE,TRUE,,https://cdn.shopify.com/s/files/1/1065/1422/products/1_681a0754-4b40-4050-acce-c1197ad2fdc0.jpg?v=1450841839,,FALSE,,,,,,,,,,,,,,,,,kg,Clothings
gin-lane-greenport-cotton-shirt-32,,,,,,,,,,,,,,,,,,,,,,,,https://cdn.shopify.com/s/files/1/1065/1422/products/2_e857b9ae-b777-4066-8e6f-aed31251d231.jpg?v=1450841847,,,,,,,,,,,,,,,,,,,,Clothings
gin-lane-greenport-cotton-shirt-32,,,,,,,,,,,,,,,,,,,,,,,,https://cdn.shopify.com/s/files/1/1065/1422/products/3_9eff61b9-ad2f-44f8-8f64-5d9bf364a3ca.jpg?v=1450841853,,,,,,,,,,,,,,,,,,,,Clothings
gin-lane-greenport-cotton-shirt-32,,,,,,,,,,,,,,,,,,,,,,,,https://cdn.shopify.com/s/files/1/1065/1422/products/2_5ef6cdd7-ea3e-4ee8-9fe3-cc4086bf219a.jpg?v=1450841862,,,,,,,,,,,,,,,,,,,,Clothings
gin-lane-greenport-cotton-shirt-33,Gin Lane Greenport Cotton Shirt,"<p>Lorem Ipsum is simply dummy text of the printing and typesetting industry. Lorem Ipsum has been the industry's standard dummy text ever since the 1500s, when an unknown printer took a galley of type and scrambled it to make a type specimen book.</p>
<p>It has survived not only five centuries, but also the leap into electronic typesetting, remaining essentially unchanged. It was popularised in the 1960s with the release of Letraset sheets containing Lorem Ipsum passages, and more recently with desktop publishing software like Aldus PageMaker including versions of Lorem Ipsum.</p>",Baby Milo,Jacket,"$100 - $200, Blue",TRUE,Color,Blue,,,,,,0,,1,deny,manual,199,,TRUE,TRUE,,https://cdn.shopify.com/s/files/1/1065/1422/products/1_9c18d00f-970b-43eb-82df-bc0dd1d3eb3e.jpg?v=1450842249,,FALSE,,,,,,,,,,,,,,,,,kg,Jacket
gin-lane-greenport-cotton-shirt-33,,,,,,,,,,,,,,,,,,,,,,,,https://cdn.shopify.com/s/files/1/1065/1422/products/2_f97c2fd0-aa50-4c9f-961d-beb41fc41095.jpg?v=1450842290,,,,,,,,,,,,,,,,,,,,Jacket
gin-lane-greenport-cotton-shirt-33,,,,,,,,,,,,,,,,,,,,,,,,https://cdn.shopify.com/s/files/1/1065/1422/products/3_7ad3f22a-d5f1-4ecc-ba48-5d0026ba1ff3.jpg?v=1450842330,,,,,,,,,,,,,,,,,,,,Jacket
gin-lane-greenport-cotton-shirt-34,Gin Lane Greenport Cotton Shirt,"<p>Lorem Ipsum is simply dummy text of the printing and typesetting industry. Lorem Ipsum has been the industry's standard dummy text ever since the 1500s, when an unknown printer took a galley of type and scrambled it to make a type specimen book.</p>
<p>It has survived not only five centuries, but also the leap into electronic typesetting, remaining essentially unchanged. It was popularised in the 1960s with the release of Letraset sheets containing Lorem Ipsum passages, and more recently with desktop publishing software like Aldus PageMaker including versions of Lorem Ipsum.</p>",Baby Milo,Trousers,"$100 - $200, Blue",TRUE,Color,Blue,,,,,,0,,1,deny,manual,175,,TRUE,TRUE,,https://cdn.shopify.com/s/files/1/1065/1422/products/1_e03fbc56-9728-417e-848c-4b70e231a6f8.jpg?v=1450842336,,FALSE,,,,,,,,,,,,,,,,,kg,Accessories
gin-lane-greenport-cotton-shirt-34,,,,,,,,,,,,,,,,,,,,,,,,https://cdn.shopify.com/s/files/1/1065/1422/products/2_84e1923c-018e-4f0c-9218-af13899306b9.jpg?v=1450842357,,,,,,,,,,,,,,,,,,,,Accessories
gin-lane-greenport-cotton-shirt-34,,,,,,,,,,,,,,,,,,,,,,,,https://cdn.shopify.com/s/files/1/1065/1422/products/1_be50620d-6424-4147-98f2-b1a390e0b6be.jpg?v=1450842377,,,,,,,,,,,,,,,,,,,,Accessories
gin-lane-greenport-cotton-shirt-34,,,,,,,,,,,,,,,,,,,,,,,,https://cdn.shopify.com/s/files/1/1065/1422/products/2_c660fa29-2cdb-40c3-a57d-59fa5c93c615.jpg?v=1450842397,,,,,,,,,,,,,,,,,,,,Accessories
gin-lane-greenport-cotton-shirt-35,Gin Lane Greenport Cotton Shirt,"<p>Lorem Ipsum is simply dummy text of the printing and typesetting industry. Lorem Ipsum has been the industry's standard dummy text ever since the 1500s, when an unknown printer took a galley of type and scrambled it to make a type specimen book.</p>
<p>It has survived not only five centuries, but also the leap into electronic typesetting, remaining essentially unchanged. It was popularised in the 1960s with the release of Letraset sheets containing Lorem Ipsum passages, and more recently with desktop publishing software like Aldus PageMaker including versions of Lorem Ipsum.</p>",Baby Milo,Hat,"$35  -  $100, gray",TRUE,Color,Gray,,,,,,0,,1,deny,manual,36,,TRUE,TRUE,,https://cdn.shopify.com/s/files/1/1065/1422/products/1_a15c3de5-7966-440f-b00f-483821f3d8ec.jpg?v=1450842525,,FALSE,,,,,,,,,,,,,,,,,kg,Hat
gin-lane-greenport-cotton-shirt-35,,,,,,,,,,,,,,,,,,,,,,,,https://cdn.shopify.com/s/files/1/1065/1422/products/2_c1cfdbdf-b8a5-4a05-b676-aac4eb91d95d.jpg?v=1450842569,,,,,,,,,,,,,,,,,,,,
gin-lane-greenport-cotton-shirt-35,,,,,,,,,,,,,,,,,,,,,,,,https://cdn.shopify.com/s/files/1/1065/1422/products/3_fd4b53c4-7078-4e54-afb3-107a1a57056a.jpg?v=1450842582,,,,,,,,,,,,,,,,,,,,
gin-lane-greenport-cotton-shirt-35,,,,,,,,,,,,,,,,,,,,,,,,https://cdn.shopify.com/s/files/1/1065/1422/products/1_999d3e08-d428-499d-85c6-e4a11b2dcfda.jpg?v=1450842597,,,,,,,,,,,,,,,,,,,,Hat
gin-lane-greenport-cotton-shirt-35,,,,,,,,,,,,,,,,,,,,,,,,https://cdn.shopify.com/s/files/1/1065/1422/products/2_f79c5395-d184-45ff-8e8e-546208e00256.jpg?v=1450842608,,,,,,,,,,,,,,,,,,,,Hat
gin-lane-greenport-cotton-shirt-36,Gin Lane Greenport Cotton Shirt,"<p>Lorem Ipsum is simply dummy text of the printing and typesetting industry. Lorem Ipsum has been the industry's standard dummy text ever since the 1500s, when an unknown printer took a galley of type and scrambled it to make a type specimen book.</p>
<p>It has survived not only five centuries, but also the leap into electronic typesetting, remaining essentially unchanged. It was popularised in the 1960s with the release of Letraset sheets containing Lorem Ipsum passages, and more recently with desktop publishing software like Aldus PageMaker including versions of Lorem Ipsum.</p>",Baby Milo,T-Shirts,"$200 - $300, dask",TRUE,Color,Dask,,,,,,0,,1,deny,manual,219,,TRUE,TRUE,,https://cdn.shopify.com/s/files/1/1065/1422/products/1_40c26dcf-c3ab-4735-9e51-554bad0448cf.jpg?v=1450842838,,FALSE,,,,,,,,,,,,,,,,,kg,
gin-lane-greenport-cotton-shirt-36,,,,,,,,,,,,,,,,,,,,,,,,https://cdn.shopify.com/s/files/1/1065/1422/products/2_7099e79c-5d49-4585-9978-46819f85d447.jpg?v=1450842855,,,,,,,,,,,,,,,,,,,,
gin-lane-greenport-cotton-shirt-36,,,,,,,,,,,,,,,,,,,,,,,,https://cdn.shopify.com/s/files/1/1065/1422/products/3_f0b8faee-5e11-47c5-84ad-315b1d99636f.jpg?v=1450842909,,,,,,,,,,,,,,,,,,,,
gin-lane-greenport-cotton-shirt-36,,,,,,,,,,,,,,,,,,,,,,,,https://cdn.shopify.com/s/files/1/1065/1422/products/2_5d51f87d-241f-4235-a53a-f2e311a5834e.jpg?v=1450842926,,,,,,,,,,,,,,,,,,,,
gin-lane-greenport-cotton-shirt-37,Gin Lane Greenport Cotton Shirt,"<p>Lorem Ipsum is simply dummy text of the printing and typesetting industry. Lorem Ipsum has been the industry's standard dummy text ever since the 1500s, when an unknown printer took a galley of type and scrambled it to make a type specimen book.</p>
<p>It has survived not only five centuries, but also the leap into electronic typesetting, remaining essentially unchanged. It was popularised in the 1960s with the release of Letraset sheets containing Lorem Ipsum passages, and more recently with desktop publishing software like Aldus PageMaker including versions of Lorem Ipsum.</p>",Kill City,swatch,"$100 - $200, brown",TRUE,Color,Brown,,,,,,0,,1,deny,manual,120,,TRUE,TRUE,,https://cdn.shopify.com/s/files/1/1065/1422/products/1_48097e47-04b8-4767-9b76-f8416c550ad6.jpg?v=1450842977,,FALSE,,,,,,,,,,,,,,,,,kg,
gin-lane-greenport-cotton-shirt-37,,,,,,,,,,,,,,,,,,,,,,,,https://cdn.shopify.com/s/files/1/1065/1422/products/2_9234b3dd-a720-471e-a10e-6198400f2cbd.jpg?v=1450843019,,,,,,,,,,,,,,,,,,,,
gin-lane-greenport-cotton-shirt-37,,,,,,,,,,,,,,,,,,,,,,,,https://cdn.shopify.com/s/files/1/1065/1422/products/3_6c7cc64a-f6d1-4a19-be63-e3e176fc783c.jpg?v=1450843059,,,,,,,,,,,,,,,,,,,,
gin-lane-greenport-cotton-shirt-37,,,,,,,,,,,,,,,,,,,,,,,,https://cdn.shopify.com/s/files/1/1065/1422/products/1_8a70c54f-4000-47a4-8bae-e6d2aa211d46.jpg?v=1450843090,,,,,,,,,,,,,,,,,,,,
gin-lane-greenport-cotton-shirt-37,,,,,,,,,,,,,,,,,,,,,,,,https://cdn.shopify.com/s/files/1/1065/1422/products/2_4c0e028f-bc79-4036-a68d-e01dd1918fde.jpg?v=1450843110,,,,,,,,,,,,,,,,,,,,
gin-lane-greenport-cotton-shirt-38,Gin Lane Greenport Cotton Shirt,"<p>Lorem Ipsum is simply dummy text of the printing and typesetting industry. Lorem Ipsum has been the industry's standard dummy text ever since the 1500s, when an unknown printer took a galley of type and scrambled it to make a type specimen book.</p>
<p>It has survived not only five centuries, but also the leap into electronic typesetting, remaining essentially unchanged. It was popularised in the 1960s with the release of Letraset sheets containing Lorem Ipsum passages, and more recently with desktop publishing software like Aldus PageMaker including versions of Lorem Ipsum.</p>",Nike,Shoes,"$100 - $200, brow, Red, white",TRUE,Color,red,,,,,,0,,1,deny,manual,120,,TRUE,TRUE,,https://cdn.shopify.com/s/files/1/1065/1422/products/1_21538d7b-349f-4e22-970d-8c4e4b72fc3d.jpg?v=1450843060,,FALSE,,,,,,,,,,,,,,,,,kg,
gin-lane-greenport-cotton-shirt-38,,,,,,,,blue,,,,,,0,,1,deny,manual,120,,TRUE,TRUE,,https://cdn.shopify.com/s/files/1/1065/1422/products/2_3da15a94-caa1-4ba1-b30b-30ff9c6ac47c.jpg?v=1450843073,,,,,,,,,,,,,,,,,,,kg,
gin-lane-greenport-cotton-shirt-38,,,,,,,,gray,,,,,,0,,1,deny,manual,120,,TRUE,TRUE,,https://cdn.shopify.com/s/files/1/1065/1422/products/3_710628ec-4bd7-4b6a-9b58-812799431527.jpg?v=1450843086,,,,,,,,,,,,,,,,,,,kg,
gin-lane-greenport-cotton-shirt-39,Gin Lane Greenport Cotton Shirt,"<p>Lorem Ipsum is simply dummy text of the printing and typesetting industry. Lorem Ipsum has been the industry's standard dummy text ever since the 1500s, when an unknown printer took a galley of type and scrambled it to make a type specimen book.</p>
<p>It has survived not only five centuries, but also the leap into electronic typesetting, remaining essentially unchanged. It was popularised in the 1960s with the release of Letraset sheets containing Lorem Ipsum passages, and more recently with desktop publishing software like Aldus PageMaker including versions of Lorem Ipsum.</p>",Baby Milo,Jacket,"$100 - $200, orange",TRUE,Color,Orange,,,,,'0,0,shopify,0,deny,manual,150,200,TRUE,TRUE,'0,https://cdn.shopify.com/s/files/1/1065/1422/products/1_26735247-c49c-430e-85e0-e9b9ee3185bb.jpg?v=1450843203,,FALSE,,,,,,,,,,,,,,,,,kg,Jacket
gin-lane-greenport-cotton-shirt-39,,,,,,,,,,,,,,,,,,,,,,,,https://cdn.shopify.com/s/files/1/1065/1422/products/2_9d04d5e8-1b09-4eb2-b2ae-2965e05ae8c6.jpg?v=1450843243,,,,,,,,,,,,,,,,,,,,Jacket
gin-lane-greenport-cotton-shirt-39,,,,,,,,,,,,,,,,,,,,,,,,https://cdn.shopify.com/s/files/1/1065/1422/products/3_38f7c316-4c4f-4310-bcd1-66e2cd019d42.jpg?v=1450843275,,,,,,,,,,,,,,,,,,,,Jacket
gin-lane-greenport-cotton-shirt-39,,,,,,,,,,,,,,,,,,,,,,,,https://cdn.shopify.com/s/files/1/1065/1422/products/1_c428a138-68c6-4742-b584-cde1679a85b2.jpg?v=1450843297,,,,,,,,,,,,,,,,,,,,Jacket
gin-lane-greenport-cotton-shirt-40,Gin Lane Greenport Cotton Shirt,"<p>Lorem Ipsum is simply dummy text of the printing and typesetting industry. Lorem Ipsum has been the industry's standard dummy text ever since the 1500s, when an unknown printer took a galley of type and scrambled it to make a type specimen book.</p>
<p>It has survived not only five centuries, but also the leap into electronic typesetting, remaining essentially unchanged. It was popularised in the 1960s with the release of Letraset sheets containing Lorem Ipsum passages, and more recently with desktop publishing software like Aldus PageMaker including versions of Lorem Ipsum.</p>",Kill City,Trousers,"$200 - $300, gray, M, XL",TRUE,Colo,Gray,Size,M,,,,0,,1,deny,manual,200,,TRUE,TRUE,,https://cdn.shopify.com/s/files/1/1065/1422/products/1_55ca71f7-89a9-4ac1-af77-7d1168ba0b86.jpg?v=1450843355,,FALSE,,,,,,,,,,,,,,,,,kg,
gin-lane-greenport-cotton-shirt-40,,,,,,,,Gray,,XL,,,,0,,1,deny,manual,200,,TRUE,TRUE,,https://cdn.shopify.com/s/files/1/1065/1422/products/2_c160110f-2838-4e64-87e0-aa02e2900e68.jpg?v=1450843363,,,,,,,,,,,,,,,,,,,kg,
gin-lane-greenport-cotton-shirt-40,,,,,,,,Gray,,L,,,,0,,1,deny,manual,200,,TRUE,TRUE,,https://cdn.shopify.com/s/files/1/1065/1422/products/1_135ed5fe-817f-4930-8dcb-f577a1cf70a4.jpg?v=1450843368,,,,,,,,,,,,,,,,,,,kg,
gin-lane-greenport-cotton-shirt-40,,,,,,,,,,,,,,,,,,,,,,,,https://cdn.shopify.com/s/files/1/1065/1422/products/2_e1307ade-6a88-4306-90fd-5e52623b9b16.jpg?v=1450843374,,,,,,,,,,,,,,,,,,,,
gin-lane-greenport-cotton-shirt-41,Gin Lane Greenport Cotton Shirt,"<p>Lorem Ipsum is simply dummy text of the printing and typesetting industry. Lorem Ipsum has been the industry's standard dummy text ever since the 1500s, when an unknown printer took a galley of type and scrambled it to make a type specimen book.</p>
<p>It has survived not only five centuries, but also the leap into electronic typesetting, remaining essentially unchanged. It was popularised in the 1960s with the release of Letraset sheets containing Lorem Ipsum passages, and more recently with desktop publishing software like Aldus PageMaker including versions of Lorem Ipsum.</p>",Baby Milo,T-Shirts,$400  -  $500,TRUE,Title,Default Title,,,,,,0,,1,deny,manual,400,,TRUE,TRUE,,https://cdn.shopify.com/s/files/1/1065/1422/products/1_b15ad72d-70f9-4e31-80ed-2ab122b9b3ff.jpg?v=1450843512,,FALSE,,,,,,,,,,,,,,,,,kg,New arrivals
gin-lane-greenport-cotton-shirt-41,,,,,,,,,,,,,,,,,,,,,,,,https://cdn.shopify.com/s/files/1/1065/1422/products/2_2238a59e-4f94-4915-82ad-b04fb11edd30.jpg?v=1450843539,,,,,,,,,,,,,,,,,,,,New arrivals
gin-lane-greenport-cotton-shirt-41,,,,,,,,,,,,,,,,,,,,,,,,https://cdn.shopify.com/s/files/1/1065/1422/products/1_f022eba7-267b-4b56-b952-af7c6c6ae4e4.jpg?v=1450843557,,,,,,,,,,,,,,,,,,,,New arrivals
gin-lane-greenport-cotton-shirt-41,,,,,,,,,,,,,,,,,,,,,,,,https://cdn.shopify.com/s/files/1/1065/1422/products/2_85778b63-de25-40e1-aad4-4731c4847e60.jpg?v=1450843579,,,,,,,,,,,,,,,,,,,,New arrivals
gin-lane-greenport-cotton-shirt-42,Gin Lane Greenport Cotton Shirt,"<p>Lorem Ipsum is simply dummy text of the printing and typesetting industry. Lorem Ipsum has been the industry's standard dummy text ever since the 1500s, when an unknown printer took a galley of type and scrambled it to make a type specimen book.</p>
<p>It has survived not only five centuries, but also the leap into electronic typesetting, remaining essentially unchanged. It was popularised in the 1960s with the release of Letraset sheets containing Lorem Ipsum passages, and more recently with desktop publishing software like Aldus PageMaker including versions of Lorem Ipsum.</p>",Baby Milo,T-Shirts,"$35  -  $100, dask, gray, L, M, S, XL",TRUE,Size,S,Color,Dask,,,,0,,1,deny,manual,99,,TRUE,TRUE,,https://cdn.shopify.com/s/files/1/1065/1422/products/1_d6886966-3ae0-4fc3-9e8a-12e06d40256e.jpg?v=1450843937,,FALSE,,,,,,,,,,,,,,,,,kg,
gin-lane-greenport-cotton-shirt-42,,,,,,,,S,,Gray,,,,0,,1,deny,manual,99,,TRUE,TRUE,,https://cdn.shopify.com/s/files/1/1065/1422/products/2_5226dca3-9acb-4e1b-8430-a16196f0318d.jpg?v=1450843960,,,,,,,,,,,,,,,,,,,kg,
gin-lane-greenport-cotton-shirt-42,,,,,,,,M,,Dask,,,,0,,1,deny,manual,99,,TRUE,TRUE,,https://cdn.shopify.com/s/files/1/1065/1422/products/1_f63d048d-dae0-4bbf-bdf2-cba3fff91844.jpg?v=1450843985,,,,,,,,,,,,,,,,,,,kg,
gin-lane-greenport-cotton-shirt-42,,,,,,,,M,,Gray,,,,0,,1,deny,manual,99,,TRUE,TRUE,,https://cdn.shopify.com/s/files/1/1065/1422/products/2_369a5054-822e-4a67-b475-855e6ca01a96.jpg?v=1450844009,,,,,,,,,,,,,,,,,,,kg,
gin-lane-greenport-cotton-shirt-42,,,,,,,,L,,Dask,,,,0,,1,deny,manual,99,,TRUE,TRUE,,,,,,,,,,,,,,,,,,,,,kg,
gin-lane-greenport-cotton-shirt-42,,,,,,,,L,,Gray,,,,0,,1,deny,manual,99,,TRUE,TRUE,,,,,,,,,,,,,,,,,,,,,kg,
gin-lane-greenport-cotton-shirt-42,,,,,,,,XL,,Dask,,,,0,,1,deny,manual,99,,TRUE,TRUE,,,,,,,,,,,,,,,,,,,,,kg,
gin-lane-greenport-cotton-shirt-42,,,,,,,,XL,,Gray,,,,0,,1,deny,manual,99,,TRUE,TRUE,,,,,,,,,,,,,,,,,,,,,kg,
gin-lane-greenport-cotton-shirt-43,Gin Lane Greenport Cotton Shirt,"<p>Lorem Ipsum is simply dummy text of the printing and typesetting industry. Lorem Ipsum has been the industry's standard dummy text ever since the 1500s, when an unknown printer took a galley of type and scrambled it to make a type specimen book.</p>
<p>It has survived not only five centuries, but also the leap into electronic typesetting, remaining essentially unchanged. It was popularised in the 1960s with the release of Letraset sheets containing Lorem Ipsum passages, and more recently with desktop publishing software like Aldus PageMaker including versions of Lorem Ipsum.</p>",Baby Milo,Handbag,"$35  -  $100, brown, dask",TRUE,Color,Brown,,,,,,0,,1,deny,manual,50,,TRUE,TRUE,,https://cdn.shopify.com/s/files/1/1065/1422/products/1_cbe7f18a-a730-4f16-857f-f0c7beeaa3b6.jpg?v=1450844089,,FALSE,,,,,,,,,,,,,,,,,kg,
gin-lane-greenport-cotton-shirt-43,,,,,,,,Dask,,,,,,0,,1,deny,manual,50,,TRUE,TRUE,,https://cdn.shopify.com/s/files/1/1065/1422/products/2_461cc7ff-f946-41bb-8062-538568045bbb.jpg?v=1450844114,,,,,,,,,,,,,,,,,,,kg,
gin-lane-greenport-cotton-shirt-43,,,,,,,,,,,,,,,,,,,,,,,,https://cdn.shopify.com/s/files/1/1065/1422/products/3_0ba70b4b-f452-4538-aba5-8fb10360bf44.jpg?v=1450844132,,,,,,,,,,,,,,,,,,,,
gin-lane-greenport-cotton-shirt-43,,,,,,,,,,,,,,,,,,,,,,,,https://cdn.shopify.com/s/files/1/1065/1422/products/4_45406ee6-0d30-4b90-ac73-df1221198ad5.jpg?v=1450844144,,,,,,,,,,,,,,,,,,,,
gin-lane-greenport-cotton-shirt-44,Gin Lane Greenport Cotton Shirt,"<p>Lorem Ipsum is simply dummy text of the printing and typesetting industry. Lorem Ipsum has been the industry's standard dummy text ever since the 1500s, when an unknown printer took a galley of type and scrambled it to make a type specimen book.</p>
<p>It has survived not only five centuries, but also the leap into electronic typesetting, remaining essentially unchanged. It was popularised in the 1960s with the release of Letraset sheets containing Lorem Ipsum passages, and more recently with desktop publishing software like Aldus PageMaker including versions of Lorem Ipsum.</p>",Jaxon,Necklace,$100 - $200,TRUE,Title,Default Title,,,,,,0,,1,deny,manual,120,,TRUE,TRUE,,https://cdn.shopify.com/s/files/1/1065/1422/products/1_e99e902f-592a-4ba2-868b-92012e35acb2.jpg?v=1450844314,,FALSE,,,,,,,,,,,,,,,,,kg,
gin-lane-greenport-cotton-shirt-44,,,,,,,,,,,,,,,,,,,,,,,,https://cdn.shopify.com/s/files/1/1065/1422/products/2_66780498-6b55-47c8-9da1-52c446ae80eb.jpg?v=1450844332,,,,,,,,,,,,,,,,,,,,
gin-lane-greenport-cotton-shirt-44,,,,,,,,,,,,,,,,,,,,,,,,https://cdn.shopify.com/s/files/1/1065/1422/products/3_79884837-43fd-4e85-856c-81e2252cad7c.jpg?v=1450844374,,,,,,,,,,,,,,,,,,,,
gin-lane-greenport-cotton-shirt-44,,,,,,,,,,,,,,,,,,,,,,,,https://cdn.shopify.com/s/files/1/1065/1422/products/1_daff1cc1-a7f3-477b-b0e2-11a21ca5c6ff.jpg?v=1450844383,,,,,,,,,,,,,,,,,,,,
gin-lane-greenport-cotton-shirt-44,,,,,,,,,,,,,,,,,,,,,,,,https://cdn.shopify.com/s/files/1/1065/1422/products/2_12023cc5-9e4c-4607-a955-e47255909800.jpg?v=1450844397,,,,,,,,,,,,,,,,,,,,
gin-lane-greenport-cotton-shirt-45,Gin Lane Greenport Cotton Shirt,"<p>Lorem Ipsum is simply dummy text of the printing and typesetting industry. Lorem Ipsum has been the industry's standard dummy text ever since the 1500s, when an unknown printer took a galley of type and scrambled it to make a type specimen book.</p>
<p>It has survived not only five centuries, but also the leap into electronic typesetting, remaining essentially unchanged. It was popularised in the 1960s with the release of Letraset sheets containing Lorem Ipsum passages, and more recently with desktop publishing software like Aldus PageMaker including versions of Lorem Ipsum.</p>",Jaxon,Bracelet,$35  -  $100,TRUE,Title,Default Title,,,,,,0,,1,deny,manual,40,,TRUE,TRUE,,https://cdn.shopify.com/s/files/1/1065/1422/products/1_d03a2217-e3ad-440a-9be6-34d1193960e0.jpg?v=1450844420,,FALSE,,,,,,,,,,,,,,,,,kg,
gin-lane-greenport-cotton-shirt-45,,,,,,,,,,,,,,,,,,,,,,,,https://cdn.shopify.com/s/files/1/1065/1422/products/2_b9752e93-9ec4-4164-8529-a03f68d3fb5a.jpg?v=1450844438,,,,,,,,,,,,,,,,,,,,
gin-lane-greenport-cotton-shirt-45,,,,,,,,,,,,,,,,,,,,,,,,https://cdn.shopify.com/s/files/1/1065/1422/products/3_12f46a50-c275-4324-8600-3e9d4c15453f.jpg?v=1450844465,,,,,,,,,,,,,,,,,,,,
gin-lane-greenport-cotton-shirt-45,,,,,,,,,,,,,,,,,,,,,,,,https://cdn.shopify.com/s/files/1/1065/1422/products/1_5675bfec-fd6b-483a-b6de-1cffbda73164.jpg?v=1450844476,,,,,,,,,,,,,,,,,,,,
gin-lane-greenport-cotton-shirt-45,,,,,,,,,,,,,,,,,,,,,,,,https://cdn.shopify.com/s/files/1/1065/1422/products/2_7aef837d-da60-47b0-906f-545591fb536a.jpg?v=1450844484,,,,,,,,,,,,,,,,,,,,
gin-lane-greenport-cotton-shirt-46,Gin Lane Greenport Cotton Shirt,"<p>Lorem Ipsum is simply dummy text of the printing and typesetting industry. Lorem Ipsum has been the industry's standard dummy text ever since the 1500s, when an unknown printer took a galley of type and scrambled it to make a type specimen book.</p>
<p>It has survived not only five centuries, but also the leap into electronic typesetting, remaining essentially unchanged. It was popularised in the 1960s with the release of Letraset sheets containing Lorem Ipsum passages, and more recently with desktop publishing software like Aldus PageMaker including versions of Lorem Ipsum.</p>",Jaxon,Bracelet,"$35  -  $100, dask",TRUE,Title,Default Title,,,,,,0,,1,deny,manual,40,,TRUE,TRUE,,https://cdn.shopify.com/s/files/1/1065/1422/products/1_92157c74-1e88-4fb7-a123-55e7af1d54d3.jpg?v=1450844500,,FALSE,,,,,,,,,,,,,,,,,kg,
gin-lane-greenport-cotton-shirt-46,,,,,,,,,,,,,,,,,,,,,,,,https://cdn.shopify.com/s/files/1/1065/1422/products/2_9dcdbc4e-3742-4e49-8426-f24e8cc1d21a.jpg?v=1450844518,,,,,,,,,,,,,,,,,,,,
gin-lane-greenport-cotton-shirt-46,,,,,,,,,,,,,,,,,,,,,,,,https://cdn.shopify.com/s/files/1/1065/1422/products/3_6574c871-92b0-464a-aef4-79988ce9f78c.jpg?v=1450844548,,,,,,,,,,,,,,,,,,,,
gin-lane-greenport-cotton-shirt-46,,,,,,,,,,,,,,,,,,,,,,,,https://cdn.shopify.com/s/files/1/1065/1422/products/1_d01af7b2-4127-4e8e-b14e-4bf699c64aa9.jpg?v=1450844563,,,,,,,,,,,,,,,,,,,,
gin-lane-greenport-cotton-shirt-47,Gin Lane Greenport Cotton Shirt,"<p>Lorem Ipsum is simply dummy text of the printing and typesetting industry. Lorem Ipsum has been the industry's standard dummy text ever since the 1500s, when an unknown printer took a galley of type and scrambled it to make a type specimen book.</p>
<p>It has survived not only five centuries, but also the leap into electronic typesetting, remaining essentially unchanged. It was popularised in the 1960s with the release of Letraset sheets containing Lorem Ipsum passages, and more recently with desktop publishing software like Aldus PageMaker including versions of Lorem Ipsum.</p>",Lace,Handbag,"$35  -  $100, dask",TRUE,Title,Default Title,,,,,,0,,1,deny,manual,45,,TRUE,TRUE,,https://cdn.shopify.com/s/files/1/1065/1422/products/1_c4cbf873-3ef8-4b4c-9372-7a2cf7941bde.jpg?v=1450844622,,FALSE,,,,,,,,,,,,,,,,,kg,
gin-lane-greenport-cotton-shirt-47,,,,,,,,,,,,,,,,,,,,,,,,https://cdn.shopify.com/s/files/1/1065/1422/products/2_bdabdf89-fcf5-4cf5-aaca-04b586e86158.jpg?v=1450844636,,,,,,,,,,,,,,,,,,,,
gin-lane-greenport-cotton-shirt-47,,,,,,,,,,,,,,,,,,,,,,,,https://cdn.shopify.com/s/files/1/1065/1422/products/3_939a7876-c818-4871-9bd0-38697244fbdc.jpg?v=1450844651,,,,,,,,,,,,,,,,,,,,
gin-lane-greenport-cotton-shirt-47,,,,,,,,,,,,,,,,,,,,,,,,https://cdn.shopify.com/s/files/1/1065/1422/products/4_ecbedddd-5652-47bc-8d0f-b71ceb6be538.jpg?v=1450844664,,,,,,,,,,,,,,,,,,,,
gin-lane-greenport-cotton-shirt-48,Gin Lane Greenport Cotton Shirt,"<p>Lorem Ipsum is simply dummy text of the printing and typesetting industry. Lorem Ipsum has been the industry's standard dummy text ever since the 1500s, when an unknown printer took a galley of type and scrambled it to make a type specimen book.</p>
<p>It has survived not only five centuries, but also the leap into electronic typesetting, remaining essentially unchanged. It was popularised in the 1960s with the release of Letraset sheets containing Lorem Ipsum passages, and more recently with desktop publishing software like Aldus PageMaker including versions of Lorem Ipsum.</p>",Lace,Handbag,"$35  -  $100, brown",TRUE,Title,Default Title,,,,,,0,,1,deny,manual,55,,TRUE,TRUE,,https://cdn.shopify.com/s/files/1/1065/1422/products/1_48b5c239-7c25-4d64-b3c9-cb157025aad4.jpg?v=1450844716,,FALSE,,,,,,,,,,,,,,,,,kg,
gin-lane-greenport-cotton-shirt-48,,,,,,,,,,,,,,,,,,,,,,,,https://cdn.shopify.com/s/files/1/1065/1422/products/2_cd50d4e4-e865-4aa2-a2f9-cc9c06e2d782.jpg?v=1450844732,,,,,,,,,,,,,,,,,,,,
gin-lane-greenport-cotton-shirt-48,,,,,,,,,,,,,,,,,,,,,,,,https://cdn.shopify.com/s/files/1/1065/1422/products/3_1edfd701-709c-40b8-8643-db10a6efb7e1.jpg?v=1450844761,,,,,,,,,,,,,,,,,,,,
gin-lane-greenport-cotton-shirt-48,,,,,,,,,,,,,,,,,,,,,,,,https://cdn.shopify.com/s/files/1/1065/1422/products/5_3d5591e0-2de1-4038-abe9-6cf9cad7102d.jpg?v=1450844798,,,,,,,,,,,,,,,,,,,,
gin-lane-greenport-cotton-shirt-48,,,,,,,,,,,,,,,,,,,,,,,,https://cdn.shopify.com/s/files/1/1065/1422/products/6_81df9cfa-1240-4e11-afcd-f5e0ecd13b3a.jpg?v=1450844845,,,,,,,,,,,,,,,,,,,,
gin-lane-greenport-cotton-shirt-48,,,,,,,,,,,,,,,,,,,,,,,,https://cdn.shopify.com/s/files/1/1065/1422/products/7_d44f13b9-38ab-40e6-8d31-9a981650df7d.jpg?v=1450844875,,,,,,,,,,,,,,,,,,,,
gin-lane-greenport-cotton-shirt-48,,,,,,,,,,,,,,,,,,,,,,,,https://cdn.shopify.com/s/files/1/1065/1422/products/8_11170abf-5e10-40af-aa2d-1f18cbde037c.jpg?v=1450844909,,,,,,,,,,,,,,,,,,,,
gin-lane-greenport-cotton-shirt-48,,,,,,,,,,,,,,,,,,,,,,,,https://cdn.shopify.com/s/files/1/1065/1422/products/9.jpg?v=1450844961,,,,,,,,,,,,,,,,,,,,
gin-lane-greenport-cotton-shirt-48,,,,,,,,,,,,,,,,,,,,,,,,https://cdn.shopify.com/s/files/1/1065/1422/products/41.jpg?v=1450844992,,,,,,,,,,,,,,,,,,,,
gin-lane-greenport-cotton-shirt-49,Gin Lane Greenport Cotton Shirt,"<p>Lorem Ipsum is simply dummy text of the printing and typesetting industry. Lorem Ipsum has been the industry's standard dummy text ever since the 1500s, when an unknown printer took a galley of type and scrambled it to make a type specimen book.</p>
<p>It has survived not only five centuries, but also the leap into electronic typesetting, remaining essentially unchanged. It was popularised in the 1960s with the release of Letraset sheets containing Lorem Ipsum passages, and more recently with desktop publishing software like Aldus PageMaker including versions of Lorem Ipsum.</p>",Lace,Necklace,$100 - $200,TRUE,Title,Default Title,,,,,,0,,1,deny,manual,120,,TRUE,TRUE,,https://cdn.shopify.com/s/files/1/1065/1422/products/1_ab145455-9ff8-4a7d-8d4f-4ddcda482e99.jpg?v=1450844791,,FALSE,,,,,,,,,,,,,,,,,kg,
gin-lane-greenport-cotton-shirt-49,,,,,,,,,,,,,,,,,,,,,,,,https://cdn.shopify.com/s/files/1/1065/1422/products/2_817486f7-c609-49b8-b445-1e32b4cc9dc4.jpg?v=1450844818,,,,,,,,,,,,,,,,,,,,
gin-lane-greenport-cotton-shirt-49,,,,,,,,,,,,,,,,,,,,,,,,https://cdn.shopify.com/s/files/1/1065/1422/products/3_936a650c-7aff-4a1a-b39c-622ea39dc1db.jpg?v=1450844858,,,,,,,,,,,,,,,,,,,,
gin-lane-greenport-cotton-shirt-49,,,,,,,,,,,,,,,,,,,,,,,,https://cdn.shopify.com/s/files/1/1065/1422/products/2_eb33e1bd-67a6-4db8-85b8-b8f3a1e1ee6a.jpg?v=1450844865,,,,,,,,,,,,,,,,,,,,
gin-lane-greenport-cotton-shirt-50,Gin Lane Greenport Cotton Shirt,"<p>Lorem Ipsum is simply dummy text of the printing and typesetting industry. Lorem Ipsum has been the industry's standard dummy text ever since the 1500s, when an unknown printer took a galley of type and scrambled it to make a type specimen book.</p>
<p>It has survived not only five centuries, but also the leap into electronic typesetting, remaining essentially unchanged. It was popularised in the 1960s with the release of Letraset sheets containing Lorem Ipsum passages, and more recently with desktop publishing software like Aldus PageMaker including versions of Lorem Ipsum.</p>",Jaxon,Bracelet,$100 - $200,TRUE,Title,Default Title,,,,,,0,,1,deny,manual,100,,TRUE,TRUE,,https://cdn.shopify.com/s/files/1/1065/1422/products/1_5e507652-3274-43e1-9c37-29eee83e3b43.jpg?v=1450845118,,FALSE,,,,,,,,,,,,,,,,,kg,
gin-lane-greenport-cotton-shirt-50,,,,,,,,,,,,,,,,,,,,,,,,https://cdn.shopify.com/s/files/1/1065/1422/products/2_952d8382-49f8-4221-be29-4f3a256a4726.jpg?v=1450845140,,,,,,,,,,,,,,,,,,,,
gin-lane-greenport-cotton-shirt-50,,,,,,,,,,,,,,,,,,,,,,,,https://cdn.shopify.com/s/files/1/1065/1422/products/3_c822f83d-8904-40c6-a46f-1f011a115958.jpg?v=1450845188,,,,,,,,,,,,,,,,,,,,
gin-lane-greenport-cotton-shirt-51,Gin Lane Greenport Cotton Shirt,"<p>Lorem Ipsum is simply dummy text of the printing and typesetting industry. Lorem Ipsum has been the industry's standard dummy text ever since the 1500s, when an unknown printer took a galley of type and scrambled it to make a type specimen book.</p>
<p>It has survived not only five centuries, but also the leap into electronic typesetting, remaining essentially unchanged. It was popularised in the 1960s with the release of Letraset sheets containing Lorem Ipsum passages, and more recently with desktop publishing software like Aldus PageMaker including versions of Lorem Ipsum.</p>",Jaxon,Bracelet,$35  -  $100,TRUE,Title,Default Title,,,,,,0,,1,deny,manual,40,,TRUE,TRUE,,https://cdn.shopify.com/s/files/1/1065/1422/products/1_22549dae-7d51-4a65-a2bf-343693b20230.jpg?v=1450845220,,FALSE,,,,,,,,,,,,,,,,,kg,
gin-lane-greenport-cotton-shirt-51,,,,,,,,,,,,,,,,,,,,,,,,https://cdn.shopify.com/s/files/1/1065/1422/products/2_2e1e142c-487f-4dfd-abda-0dce6ad18c04.jpg?v=1450845236,,,,,,,,,,,,,,,,,,,,
gin-lane-greenport-cotton-shirt-51,,,,,,,,,,,,,,,,,,,,,,,,https://cdn.shopify.com/s/files/1/1065/1422/products/3_0e7c551f-4d40-4554-a0ec-573f69544690.jpg?v=1450845270,,,,,,,,,,,,,,,,,,,,
gin-lane-greenport-cotton-shirt-51,,,,,,,,,,,,,,,,,,,,,,,,https://cdn.shopify.com/s/files/1/1065/1422/products/4_96c3429d-ce5b-471c-85a8-7956edf14c42.jpg?v=1450845285,,,,,,,,,,,,,,,,,,,,
gin-lane-greenport-cotton-shirt-52,Gin Lane Greenport Cotton Shirt,"<p>Lorem Ipsum is simply dummy text of the printing and typesetting industry. Lorem Ipsum has been the industry's standard dummy text ever since the 1500s, when an unknown printer took a galley of type and scrambled it to make a type specimen book.</p>
<p>It has survived not only five centuries, but also the leap into electronic typesetting, remaining essentially unchanged. It was popularised in the 1960s with the release of Letraset sheets containing Lorem Ipsum passages, and more recently with desktop publishing software like Aldus PageMaker including versions of Lorem Ipsum.</p>",Jaxon,Bracelet,$35  -  $100,TRUE,Title,Default Title,,,,,,0,,1,deny,manual,40,,TRUE,TRUE,,https://cdn.shopify.com/s/files/1/1065/1422/products/1_04240315-65e8-4f1d-919a-9ceee8d311bc.jpg?v=1450845282,,FALSE,,,,,,,,,,,,,,,,,kg,
gin-lane-greenport-cotton-shirt-52,,,,,,,,,,,,,,,,,,,,,,,,https://cdn.shopify.com/s/files/1/1065/1422/products/2_f67ce897-d454-4cff-8a5c-c8b62bfc1674.jpg?v=1450845294,,,,,,,,,,,,,,,,,,,,
gin-lane-greenport-cotton-shirt-52,,,,,,,,,,,,,,,,,,,,,,,,https://cdn.shopify.com/s/files/1/1065/1422/products/3_71b12577-e3eb-496e-b533-f76c93cd0ed6.jpg?v=1450845323,,,,,,,,,,,,,,,,,,,,
gin-lane-greenport-cotton-shirt-52,,,,,,,,,,,,,,,,,,,,,,,,https://cdn.shopify.com/s/files/1/1065/1422/products/1_a1a2687a-3ca7-4319-8931-c8a7ce93092d.jpg?v=1450845329,,,,,,,,,,,,,,,,,,,,
gin-lane-greenport-cotton-shirt-53,Gin Lane Greenport Cotton Shirt,"<p>Lorem Ipsum is simply dummy text of the printing and typesetting industry. Lorem Ipsum has been the industry's standard dummy text ever since the 1500s, when an unknown printer took a galley of type and scrambled it to make a type specimen book.</p>
<p>It has survived not only five centuries, but also the leap into electronic typesetting, remaining essentially unchanged. It was popularised in the 1960s with the release of Letraset sheets containing Lorem Ipsum passages, and more recently with desktop publishing software like Aldus PageMaker including versions of Lorem Ipsum.</p>",Lace,Handbag,"$100 - $200, brown",TRUE,Color,Brown,,,,,,0,,1,deny,manual,125,,TRUE,TRUE,,https://cdn.shopify.com/s/files/1/1065/1422/products/1_4362eb5a-b763-4920-9217-44d4522727da.jpg?v=1450851160,,FALSE,,,,,,,,,,,,,,,,,kg,
gin-lane-greenport-cotton-shirt-53,,,,,,,,,,,,,,,,,,,,,,,,https://cdn.shopify.com/s/files/1/1065/1422/products/2_04684c5a-368d-4635-91e3-62cd4bc11d2e.jpg?v=1450851170,,,,,,,,,,,,,,,,,,,,
gin-lane-greenport-cotton-shirt-53,,,,,,,,,,,,,,,,,,,,,,,,https://cdn.shopify.com/s/files/1/1065/1422/products/3_a525c68e-dcc0-46fc-b4d4-1bfd9d207ecc.jpg?v=1450851178,,,,,,,,,,,,,,,,,,,,
gin-lane-greenport-cotton-shirt-53,,,,,,,,,,,,,,,,,,,,,,,,https://cdn.shopify.com/s/files/1/1065/1422/products/4_499be561-1427-4c11-826b-2c10db144e85.jpg?v=1450851188,,,,,,,,,,,,,,,,,,,,
gin-lane-greenport-cotton-shirt-54,Gin Lane Greenport Cotton Shirt,"<p>Lorem Ipsum is simply dummy text of the printing and typesetting industry. Lorem Ipsum has been the industry's standard dummy text ever since the 1500s, when an unknown printer took a galley of type and scrambled it to make a type specimen book.</p>
<p>It has survived not only five centuries, but also the leap into electronic typesetting, remaining essentially unchanged. It was popularised in the 1960s with the release of Letraset sheets containing Lorem Ipsum passages, and more recently with desktop publishing software like Aldus PageMaker including versions of Lorem Ipsum.</p>",Lace,Handbag,"$100 - $200, Blue",TRUE,Color,Blue,,,,,,0,,1,deny,manual,125,,TRUE,TRUE,,https://cdn.shopify.com/s/files/1/1065/1422/products/1_6355ef20-9c3f-475d-8814-0585909a7f2b.jpg?v=1450851240,,FALSE,,,,,,,,,,,,,,,,,kg,
gin-lane-greenport-cotton-shirt-54,,,,,,,,,,,,,,,,,,,,,,,,https://cdn.shopify.com/s/files/1/1065/1422/products/2_8ed11858-ce31-4e46-9107-c6e9674457fa.jpg?v=1450851246,,,,,,,,,,,,,,,,,,,,
gin-lane-greenport-cotton-shirt-54,,,,,,,,,,,,,,,,,,,,,,,,https://cdn.shopify.com/s/files/1/1065/1422/products/3_4dd80944-6f16-4955-9d3d-dad8369535ed.jpg?v=1450851254,,,,,,,,,,,,,,,,,,,,
gin-lane-greenport-cotton-shirt-54,,,,,,,,,,,,,,,,,,,,,,,,https://cdn.shopify.com/s/files/1/1065/1422/products/4_e7031c04-a5a5-42a6-a8ac-ec17e683c952.jpg?v=1450851260,,,,,,,,,,,,,,,,,,,,
